[
  {
    "code": "LEA",
    "name": "Limited Edition Alpha",
    "gathererCode": "1E",
    "oldCode": null,
    "magicCardsInfoCode": "al",
    "releaseDate": "1993-08-05 00:00:00",
    "border": "black",
    "type": "core",
    "block": null,
    "onlineOnly": "0",
    "booster": [
      "rare",
      "uncommon",
      "uncommon",
      "uncommon",
      "common",
      "common",
      "common",
      "common",
      "common",
      "common",
      "common",
      "common",
      "common",
      "common",
      "common"
    ],
    "tcgplayerUrlPattern": "alpha-edition"
  },
  {
    "code": "LEB",
    "name": "Limited Edition Beta",
    "gathererCode": "2E",
    "oldCode": null,
    "magicCardsInfoCode": "be",
    "releaseDate": "1993-10-01 00:00:00",
    "border": "black",
    "type": "core",
    "block": null,
    "onlineOnly": "0",
    "booster": [
      "rare",
      "uncommon",
      "uncommon",
      "uncommon",
      "common",
      "common",
      "common",
      "common",
      "common",
      "common",
      "common",
      "common",
      "common",
      "common",
      "common"
    ],
    "tcgplayerUrlPattern": "beta-edition"
  },
  {
    "code": "ARN",
    "name": "Arabian Nights",
    "gathererCode": "AN",
    "oldCode": null,
    "magicCardsInfoCode": "an",
    "releaseDate": "1993-12-01 00:00:00",
    "border": "black",
    "type": "expansion",
    "block": null,
    "onlineOnly": "0",
    "booster": [
      "uncommon",
      "uncommon",
      "common",
      "common",
      "common",
      "common",
      "common",
      "common"
    ],
    "tcgplayerUrlPattern": "arabian-nights"
  },
  {
    "code": "2ED",
    "name": "Unlimited Edition",
    "gathererCode": "2U",
    "oldCode": null,
    "magicCardsInfoCode": "un",
    "releaseDate": "1993-12-01 00:00:00",
    "border": "white",
    "type": "core",
    "block": null,
    "onlineOnly": "0",
    "booster": [
      "rare",
      "uncommon",
      "uncommon",
      "uncommon",
      "common",
      "common",
      "common",
      "common",
      "common",
      "common",
      "common",
      "common",
      "common",
      "common",
      "common"
    ],
    "tcgplayerUrlPattern": "unlimited-edition"
  },
  {
    "code": "CED",
    "name": "Collector's Edition",
    "gathererCode": null,
    "oldCode": null,
    "magicCardsInfoCode": "ced",
    "releaseDate": "1993-12-01 00:00:00",
    "border": "black",
    "type": "reprint",
    "block": null,
    "onlineOnly": "0",
    "booster": null,
    "tcgplayerUrlPattern": "collectors-edition"
  },
  {
    "code": "CEI",
    "name": "International Collector's Edition",
    "gathererCode": null,
    "oldCode": null,
    "magicCardsInfoCode": "cedi",
    "releaseDate": "1993-12-01 00:00:00",
    "border": "black",
    "type": "reprint",
    "block": null,
    "onlineOnly": "0",
    "booster": null,
    "tcgplayerUrlPattern": "international-edition"
  },
  {
    "code": "pDRC",
    "name": "Dragon Con",
    "gathererCode": null,
    "oldCode": null,
    "magicCardsInfoCode": "drc",
    "releaseDate": "1994-01-01 00:00:00",
    "border": "black",
    "type": "promo",
    "block": null,
    "onlineOnly": "0",
    "booster": null,
    "tcgplayerUrlPattern": null
  },
  {
    "code": "ATQ",
    "name": "Antiquities",
    "gathererCode": "AQ",
    "oldCode": null,
    "magicCardsInfoCode": "aq",
    "releaseDate": "1994-03-01 00:00:00",
    "border": "black",
    "type": "expansion",
    "block": null,
    "onlineOnly": "0",
    "booster": [
      "uncommon",
      "uncommon",
      "common",
      "common",
      "common",
      "common",
      "common",
      "common"
    ],
    "tcgplayerUrlPattern": "antiquities"
  },
  {
    "code": "3ED",
    "name": "Revised Edition",
    "gathererCode": "3E",
    "oldCode": null,
    "magicCardsInfoCode": "rv",
    "releaseDate": "1994-04-01 00:00:00",
    "border": "white",
    "type": "core",
    "block": null,
    "onlineOnly": "0",
    "booster": [
      "rare",
      "uncommon",
      "uncommon",
      "uncommon",
      "common",
      "common",
      "common",
      "common",
      "common",
      "common",
      "common",
      "common",
      "common",
      "common",
      "common"
    ],
    "tcgplayerUrlPattern": "revised-edition"
  },
  {
    "code": "LEG",
    "name": "Legends",
    "gathererCode": "LE",
    "oldCode": null,
    "magicCardsInfoCode": "lg",
    "releaseDate": "1994-06-01 00:00:00",
    "border": "black",
    "type": "expansion",
    "block": null,
    "onlineOnly": "0",
    "booster": [
      "rare",
      "uncommon",
      "uncommon",
      "uncommon",
      "common",
      "common",
      "common",
      "common",
      "common",
      "common",
      "common",
      "common",
      "common",
      "common",
      "common"
    ],
    "tcgplayerUrlPattern": "legends"
  },
  {
    "code": "DRK",
    "name": "The Dark",
    "gathererCode": "DK",
    "oldCode": null,
    "magicCardsInfoCode": "dk",
    "releaseDate": "1994-08-01 00:00:00",
    "border": "black",
    "type": "expansion",
    "block": null,
    "onlineOnly": "0",
    "booster": [
      "uncommon",
      "uncommon",
      "common",
      "common",
      "common",
      "common",
      "common",
      "common"
    ],
    "tcgplayerUrlPattern": "the-dark"
  },
  {
    "code": "pMEI",
    "name": "Media Inserts",
    "gathererCode": null,
    "oldCode": null,
    "magicCardsInfoCode": "mbp",
    "releaseDate": "1995-01-01 00:00:00",
    "border": "black",
    "type": "promo",
    "block": null,
    "onlineOnly": "0",
    "booster": null,
    "tcgplayerUrlPattern": "media-promos"
  },
  {
    "code": "FEM",
    "name": "Fallen Empires",
    "gathererCode": "FE",
    "oldCode": null,
    "magicCardsInfoCode": "fe",
    "releaseDate": "1994-11-01 00:00:00",
    "border": "black",
    "type": "expansion",
    "block": null,
    "onlineOnly": "0",
    "booster": [
      "uncommon",
      "uncommon",
      "common",
      "common",
      "common",
      "common",
      "common",
      "common"
    ],
    "tcgplayerUrlPattern": "fallen-empires"
  },
  {
    "code": "pLGM",
    "name": "Legend Membership",
    "gathererCode": null,
    "oldCode": null,
    "magicCardsInfoCode": "dcilm",
    "releaseDate": "1995-01-01 00:00:00",
    "border": "black",
    "type": "promo",
    "block": null,
    "onlineOnly": "0",
    "booster": null,
    "tcgplayerUrlPattern": null
  },
  {
    "code": "4ED",
    "name": "Fourth Edition",
    "gathererCode": "4E",
    "oldCode": null,
    "magicCardsInfoCode": "4e",
    "releaseDate": "1995-04-01 00:00:00",
    "border": "white",
    "type": "core",
    "block": null,
    "onlineOnly": "0",
    "booster": [
      "rare",
      "uncommon",
      "uncommon",
      "uncommon",
      "common",
      "common",
      "common",
      "common",
      "common",
      "common",
      "common",
      "common",
      "common",
      "common",
      "common"
    ],
    "tcgplayerUrlPattern": "fourth-edition"
  },
  {
    "code": "ICE",
    "name": "Ice Age",
    "gathererCode": "IA",
    "oldCode": null,
    "magicCardsInfoCode": "ia",
    "releaseDate": "1995-06-01 00:00:00",
    "border": "black",
    "type": "expansion",
    "block": "Ice Age",
    "onlineOnly": "0",
    "booster": [
      "rare",
      "uncommon",
      "uncommon",
      "uncommon",
      "common",
      "common",
      "common",
      "common",
      "common",
      "common",
      "common",
      "common",
      "common",
      "common",
      "common"
    ],
    "tcgplayerUrlPattern": "ice-age"
  },
  {
    "code": "CHR",
    "name": "Chronicles",
    "gathererCode": "CH",
    "oldCode": null,
    "magicCardsInfoCode": "ch",
    "releaseDate": "1995-07-01 00:00:00",
    "border": "white",
    "type": "reprint",
    "block": null,
    "onlineOnly": "0",
    "booster": [
      "rare",
      "uncommon",
      "uncommon",
      "uncommon",
      "common",
      "common",
      "common",
      "common",
      "common",
      "common",
      "common",
      "common"
    ],
    "tcgplayerUrlPattern": "chronicles"
  },
  {
    "code": "HML",
    "name": "Homelands",
    "gathererCode": "HM",
    "oldCode": null,
    "magicCardsInfoCode": "hl",
    "releaseDate": "1995-10-01 00:00:00",
    "border": "black",
    "type": "expansion",
    "block": null,
    "onlineOnly": "0",
    "booster": [
      [
        "rare",
        "uncommon"
      ],
      [
        "rare",
        "uncommon"
      ],
      "common",
      "common",
      "common",
      "common",
      "common",
      "common"
    ],
    "tcgplayerUrlPattern": "homelands"
  },
  {
    "code": "ALL",
    "name": "Alliances",
    "gathererCode": "AL",
    "oldCode": null,
    "magicCardsInfoCode": "ai",
    "releaseDate": "1996-06-10 00:00:00",
    "border": "black",
    "type": "expansion",
    "block": "Ice Age",
    "onlineOnly": "0",
    "booster": [
      "rare",
      "uncommon",
      "uncommon",
      "uncommon",
      "common",
      "common",
      "common",
      "common",
      "common",
      "common",
      "common",
      "common"
    ],
    "tcgplayerUrlPattern": "alliances"
  },
  {
    "code": "RQS",
    "name": "Rivals Quick Start Set",
    "gathererCode": null,
    "oldCode": null,
    "magicCardsInfoCode": null,
    "releaseDate": "1996-07-01 00:00:00",
    "border": "white",
    "type": "box",
    "block": null,
    "onlineOnly": "0",
    "booster": null,
    "tcgplayerUrlPattern": null
  },
  {
    "code": "pARL",
    "name": "Arena League",
    "gathererCode": null,
    "oldCode": null,
    "magicCardsInfoCode": "arena",
    "releaseDate": "1996-08-02 00:00:00",
    "border": "black",
    "type": "promo",
    "block": null,
    "onlineOnly": "0",
    "booster": null,
    "tcgplayerUrlPattern": "arena-promos"
  },
  {
    "code": "pCEL",
    "name": "Celebration",
    "gathererCode": null,
    "oldCode": null,
    "magicCardsInfoCode": "uqc",
    "releaseDate": "1996-08-14 00:00:00",
    "border": "black",
    "type": "promo",
    "block": null,
    "onlineOnly": "0",
    "booster": null,
    "tcgplayerUrlPattern": "game-day-promos"
  },
  {
    "code": "MIR",
    "name": "Mirage",
    "gathererCode": "MI",
    "oldCode": null,
    "magicCardsInfoCode": "mr",
    "releaseDate": "1996-10-08 00:00:00",
    "border": "black",
    "type": "expansion",
    "block": "Mirage",
    "onlineOnly": "0",
    "booster": [
      "rare",
      "uncommon",
      "uncommon",
      "uncommon",
      "common",
      "common",
      "common",
      "common",
      "common",
      "common",
      "common",
      "common",
      "common",
      "common",
      "common"
    ],
    "tcgplayerUrlPattern": "mirage"
  },
  {
    "code": "MGB",
    "name": "Multiverse Gift Box",
    "gathererCode": null,
    "oldCode": null,
    "magicCardsInfoCode": "mgbc",
    "releaseDate": "1996-11-01 00:00:00",
    "border": "black",
    "type": "box",
    "block": null,
    "onlineOnly": "0",
    "booster": null,
    "tcgplayerUrlPattern": null
  },
  {
    "code": "ITP",
    "name": "Introductory Two-Player Set",
    "gathererCode": null,
    "oldCode": "I2P",
    "magicCardsInfoCode": "itp",
    "releaseDate": "1996-12-31 00:00:00",
    "border": "white",
    "type": "starter",
    "block": null,
    "onlineOnly": "0",
    "booster": null,
    "tcgplayerUrlPattern": null
  },
  {
    "code": "VIS",
    "name": "Visions",
    "gathererCode": "VI",
    "oldCode": null,
    "magicCardsInfoCode": "vi",
    "releaseDate": "1997-02-03 00:00:00",
    "border": "black",
    "type": "expansion",
    "block": "Mirage",
    "onlineOnly": "0",
    "booster": [
      "rare",
      "uncommon",
      "uncommon",
      "uncommon",
      "common",
      "common",
      "common",
      "common",
      "common",
      "common",
      "common",
      "common",
      "common",
      "common",
      "common"
    ],
    "tcgplayerUrlPattern": "visions"
  },
  {
    "code": "5ED",
    "name": "Fifth Edition",
    "gathererCode": "5E",
    "oldCode": null,
    "magicCardsInfoCode": "5e",
    "releaseDate": "1997-03-24 00:00:00",
    "border": "white",
    "type": "core",
    "block": null,
    "onlineOnly": "0",
    "booster": [
      "rare",
      "uncommon",
      "uncommon",
      "uncommon",
      "common",
      "common",
      "common",
      "common",
      "common",
      "common",
      "common",
      "common",
      "common",
      "common",
      "common"
    ],
    "tcgplayerUrlPattern": "fifth-edition"
  },
  {
    "code": "pPOD",
    "name": "Portal Demo Game",
    "gathererCode": null,
    "oldCode": null,
    "magicCardsInfoCode": "pot",
    "releaseDate": "1997-05-01 00:00:00",
    "border": "black",
    "type": "promo",
    "block": null,
    "onlineOnly": "0",
    "booster": null,
    "tcgplayerUrlPattern": null
  },
  {
    "code": "POR",
    "name": "Portal",
    "gathererCode": "PO",
    "oldCode": null,
    "magicCardsInfoCode": "po",
    "releaseDate": "1997-05-01 00:00:00",
    "border": "black",
    "type": "starter",
    "block": null,
    "onlineOnly": "0",
    "booster": [
      "rare",
      "uncommon",
      "uncommon",
      "uncommon",
      "common",
      "common",
      "common",
      "common",
      "common",
      "common",
      "common",
      "common",
      "common",
      "common",
      "common"
    ],
    "tcgplayerUrlPattern": "portal"
  },
  {
    "code": "VAN",
    "name": "Vanguard",
    "gathererCode": null,
    "oldCode": null,
    "magicCardsInfoCode": null,
    "releaseDate": "1997-05-01 00:00:00",
    "border": "black",
    "type": "vanguard",
    "block": null,
    "onlineOnly": "0",
    "booster": null,
    "tcgplayerUrlPattern": "vanguard"
  },
  {
    "code": "WTH",
    "name": "Weatherlight",
    "gathererCode": "WL",
    "oldCode": null,
    "magicCardsInfoCode": "wl",
    "releaseDate": "1997-06-09 00:00:00",
    "border": "black",
    "type": "expansion",
    "block": "Mirage",
    "onlineOnly": "0",
    "booster": [
      "rare",
      "uncommon",
      "uncommon",
      "uncommon",
      "common",
      "common",
      "common",
      "common",
      "common",
      "common",
      "common",
      "common",
      "common",
      "common",
      "common"
    ],
    "tcgplayerUrlPattern": "weatherlight"
  },
  {
    "code": "pPRE",
    "name": "Prerelease Events",
    "gathererCode": null,
    "oldCode": null,
    "magicCardsInfoCode": "ptc",
    "releaseDate": "1997-10-04 00:00:00",
    "border": "black",
    "type": "promo",
    "block": null,
    "onlineOnly": "0",
    "booster": null,
    "tcgplayerUrlPattern": "prerelease-cards"
  },
  {
    "code": "TMP",
    "name": "Tempest",
    "gathererCode": "TE",
    "oldCode": null,
    "magicCardsInfoCode": "tp",
    "releaseDate": "1997-10-14 00:00:00",
    "border": "black",
    "type": "expansion",
    "block": "Tempest",
    "onlineOnly": "0",
    "booster": [
      "rare",
      "uncommon",
      "uncommon",
      "uncommon",
      "common",
      "common",
      "common",
      "common",
      "common",
      "common",
      "common",
      "common",
      "common",
      "common",
      "common"
    ],
    "tcgplayerUrlPattern": "tempest"
  },
  {
    "code": "STH",
    "name": "Stronghold",
    "gathererCode": "ST",
    "oldCode": null,
    "magicCardsInfoCode": "sh",
    "releaseDate": "1998-03-02 00:00:00",
    "border": "black",
    "type": "expansion",
    "block": "Tempest",
    "onlineOnly": "0",
    "booster": [
      "rare",
      "uncommon",
      "uncommon",
      "uncommon",
      "common",
      "common",
      "common",
      "common",
      "common",
      "common",
      "common",
      "common",
      "common",
      "common",
      "common"
    ],
    "tcgplayerUrlPattern": "stronghold"
  },
  {
    "code": "PO2",
    "name": "Portal Second Age",
    "gathererCode": "P2",
    "oldCode": "P02",
    "magicCardsInfoCode": "po2",
    "releaseDate": "1998-06-01 00:00:00",
    "border": "black",
    "type": "starter",
    "block": null,
    "onlineOnly": "0",
    "booster": [
      "rare",
      "uncommon",
      "uncommon",
      "uncommon",
      "common",
      "common",
      "common",
      "common",
      "common",
      "common",
      "common",
      "common",
      "common",
      "common",
      "common"
    ],
    "tcgplayerUrlPattern": "portal-second-age"
  },
  {
    "code": "pJGP",
    "name": "Judge Gift Program",
    "gathererCode": null,
    "oldCode": null,
    "magicCardsInfoCode": "jr",
    "releaseDate": "1998-06-01 00:00:00",
    "border": "black",
    "type": "promo",
    "block": null,
    "onlineOnly": "0",
    "booster": null,
    "tcgplayerUrlPattern": "judge-promos"
  },
  {
    "code": "EXO",
    "name": "Exodus",
    "gathererCode": "EX",
    "oldCode": null,
    "magicCardsInfoCode": "ex",
    "releaseDate": "1998-06-15 00:00:00",
    "border": "black",
    "type": "expansion",
    "block": "Tempest",
    "onlineOnly": "0",
    "booster": [
      "rare",
      "uncommon",
      "uncommon",
      "uncommon",
      "common",
      "common",
      "common",
      "common",
      "common",
      "common",
      "common",
      "common",
      "common",
      "common",
      "common"
    ],
    "tcgplayerUrlPattern": "exodus"
  },
  {
    "code": "UGL",
    "name": "Unglued",
    "gathererCode": "UG",
    "oldCode": null,
    "magicCardsInfoCode": "ug",
    "releaseDate": "1998-08-11 00:00:00",
    "border": "silver",
    "type": "un",
    "block": null,
    "onlineOnly": "0",
    "booster": [
      "rare",
      "uncommon",
      "uncommon",
      "common",
      "common",
      "common",
      "common",
      "common",
      "common",
      "land"
    ],
    "tcgplayerUrlPattern": "unglued"
  },
  {
    "code": "pALP",
    "name": "Asia Pacific Land Program",
    "gathererCode": null,
    "oldCode": null,
    "magicCardsInfoCode": "apac",
    "releaseDate": "1998-09-01 00:00:00",
    "border": "black",
    "type": "promo",
    "block": null,
    "onlineOnly": "0",
    "booster": null,
    "tcgplayerUrlPattern": "apac-lands"
  },
  {
    "code": "USG",
    "name": "Urza's Saga",
    "gathererCode": "UZ",
    "oldCode": null,
    "magicCardsInfoCode": "us",
    "releaseDate": "1998-10-12 00:00:00",
    "border": "black",
    "type": "expansion",
    "block": "Urza's",
    "onlineOnly": "0",
    "booster": [
      "rare",
      "uncommon",
      "uncommon",
      "uncommon",
      "common",
      "common",
      "common",
      "common",
      "common",
      "common",
      "common",
      "common",
      "common",
      "common",
      "common"
    ],
    "tcgplayerUrlPattern": "urzas-saga"
  },
  {
    "code": "ATH",
    "name": "Anthologies",
    "gathererCode": null,
    "oldCode": null,
    "magicCardsInfoCode": "at",
    "releaseDate": "1998-11-01 00:00:00",
    "border": "white",
    "type": "box",
    "block": null,
    "onlineOnly": "0",
    "booster": null,
    "tcgplayerUrlPattern": "anthologies"
  },
  {
    "code": "ULG",
    "name": "Urza's Legacy",
    "gathererCode": "GU",
    "oldCode": null,
    "magicCardsInfoCode": "ul",
    "releaseDate": "1999-02-15 00:00:00",
    "border": "black",
    "type": "expansion",
    "block": "Urza's",
    "onlineOnly": "0",
    "booster": [
      "rare",
      "uncommon",
      "uncommon",
      "uncommon",
      "common",
      "common",
      "common",
      "common",
      "common",
      "common",
      "common",
      "common",
      "common",
      "common",
      "common"
    ],
    "tcgplayerUrlPattern": "urzas-legacy"
  },
  {
    "code": "6ED",
    "name": "Classic Sixth Edition",
    "gathererCode": "6E",
    "oldCode": null,
    "magicCardsInfoCode": "6e",
    "releaseDate": "1999-04-21 00:00:00",
    "border": "white",
    "type": "core",
    "block": null,
    "onlineOnly": "0",
    "booster": [
      "rare",
      "uncommon",
      "uncommon",
      "uncommon",
      "common",
      "common",
      "common",
      "common",
      "common",
      "common",
      "common",
      "common",
      "common",
      "common",
      "common"
    ],
    "tcgplayerUrlPattern": "classic-sixth-edition"
  },
  {
    "code": "PTK",
    "name": "Portal Three Kingdoms",
    "gathererCode": "PK",
    "oldCode": null,
    "magicCardsInfoCode": "p3k",
    "releaseDate": "1999-05-01 00:00:00",
    "border": "white",
    "type": "starter",
    "block": null,
    "onlineOnly": "0",
    "booster": [
      "rare",
      "uncommon",
      "uncommon",
      "common",
      "common",
      "common",
      "common",
      "common",
      "land",
      "land"
    ],
    "tcgplayerUrlPattern": "portal-three-kingdoms"
  },
  {
    "code": "UDS",
    "name": "Urza's Destiny",
    "gathererCode": "CG",
    "oldCode": null,
    "magicCardsInfoCode": "ud",
    "releaseDate": "1999-06-07 00:00:00",
    "border": "black",
    "type": "expansion",
    "block": "Urza's",
    "onlineOnly": "0",
    "booster": [
      "rare",
      "uncommon",
      "uncommon",
      "uncommon",
      "common",
      "common",
      "common",
      "common",
      "common",
      "common",
      "common",
      "common",
      "common",
      "common",
      "common"
    ],
    "tcgplayerUrlPattern": "urzas-destiny"
  },
  {
    "code": "S99",
    "name": "Starter 1999",
    "gathererCode": "P3",
    "oldCode": null,
    "magicCardsInfoCode": "st",
    "releaseDate": "1999-07-01 00:00:00",
    "border": "white",
    "type": "starter",
    "block": null,
    "onlineOnly": "0",
    "booster": [
      "rare",
      "uncommon",
      "uncommon",
      "uncommon",
      "common",
      "common",
      "common",
      "common",
      "common",
      "common",
      "common",
      "common",
      "common",
      "land",
      "land"
    ],
    "tcgplayerUrlPattern": "starter-1999"
  },
  {
    "code": "pGRU",
    "name": "Guru",
    "gathererCode": null,
    "oldCode": null,
    "magicCardsInfoCode": "guru",
    "releaseDate": "1999-07-12 00:00:00",
    "border": "black",
    "type": "promo",
    "block": null,
    "onlineOnly": "0",
    "booster": null,
    "tcgplayerUrlPattern": "guru-lands"
  },
  {
    "code": "pWOR",
    "name": "Worlds",
    "gathererCode": null,
    "oldCode": null,
    "magicCardsInfoCode": "wrl",
    "releaseDate": "1999-08-04 00:00:00",
    "border": "black",
    "type": "promo",
    "block": null,
    "onlineOnly": "0",
    "booster": null,
    "tcgplayerUrlPattern": null
  },
  {
    "code": "pWOS",
    "name": "Wizards of the Coast Online Store",
    "gathererCode": null,
    "oldCode": null,
    "magicCardsInfoCode": "wotc",
    "releaseDate": "1999-09-04 00:00:00",
    "border": "black",
    "type": "promo",
    "block": null,
    "onlineOnly": "0",
    "booster": null,
    "tcgplayerUrlPattern": null
  },
  {
    "code": "MMQ",
    "name": "Mercadian Masques",
    "gathererCode": "MM",
    "oldCode": null,
    "magicCardsInfoCode": "mm",
    "releaseDate": "1999-10-04 00:00:00",
    "border": "black",
    "type": "expansion",
    "block": "Masques",
    "onlineOnly": "0",
    "booster": [
      "rare",
      "uncommon",
      "uncommon",
      "uncommon",
      "common",
      "common",
      "common",
      "common",
      "common",
      "common",
      "common",
      "common",
      "common",
      "common",
      "common"
    ],
    "tcgplayerUrlPattern": "mercadian-masques"
  },
  {
    "code": "BRB",
    "name": "Battle Royale Box Set",
    "gathererCode": "BR",
    "oldCode": null,
    "magicCardsInfoCode": "br",
    "releaseDate": "1999-11-12 00:00:00",
    "border": "white",
    "type": "box",
    "block": null,
    "onlineOnly": "0",
    "booster": null,
    "tcgplayerUrlPattern": "battle-royale-box-set"
  },
  {
    "code": "pSUS",
    "name": "Super Series",
    "gathererCode": null,
    "oldCode": null,
    "magicCardsInfoCode": "sus",
    "releaseDate": "1999-12-01 00:00:00",
    "border": "black",
    "type": "promo",
    "block": null,
    "onlineOnly": "0",
    "booster": null,
    "tcgplayerUrlPattern": null
  },
  {
    "code": "pFNM",
    "name": "Friday Night Magic",
    "gathererCode": null,
    "oldCode": null,
    "magicCardsInfoCode": "fnmp",
    "releaseDate": "2000-02-01 00:00:00",
    "border": "black",
    "type": "promo",
    "block": null,
    "onlineOnly": "0",
    "booster": null,
    "tcgplayerUrlPattern": "fnm-promos"
  },
  {
    "code": "pELP",
    "name": "European Land Program",
    "gathererCode": null,
    "oldCode": null,
    "magicCardsInfoCode": "euro",
    "releaseDate": "2000-02-05 00:00:00",
    "border": "black",
    "type": "promo",
    "block": null,
    "onlineOnly": "0",
    "booster": null,
    "tcgplayerUrlPattern": "european-lands"
  },
  {
    "code": "NMS",
    "name": "Nemesis",
    "gathererCode": "NE",
    "oldCode": "NEM",
    "magicCardsInfoCode": "ne",
    "releaseDate": "2000-02-14 00:00:00",
    "border": "black",
    "type": "expansion",
    "block": "Masques",
    "onlineOnly": "0",
    "booster": [
      "rare",
      "uncommon",
      "uncommon",
      "uncommon",
      "common",
      "common",
      "common",
      "common",
      "common",
      "common",
      "common",
      "common",
      "common",
      "common",
      "common"
    ],
    "tcgplayerUrlPattern": "nemesis"
  },
  {
    "code": "S00",
    "name": "Starter 2000",
    "gathererCode": "P4",
    "oldCode": null,
    "magicCardsInfoCode": "st2k",
    "releaseDate": "2000-04-01 00:00:00",
    "border": "white",
    "type": "starter",
    "block": null,
    "onlineOnly": "0",
    "booster": null,
    "tcgplayerUrlPattern": "starter-2000"
  },
  {
    "code": "PCY",
    "name": "Prophecy",
    "gathererCode": "PR",
    "oldCode": null,
    "magicCardsInfoCode": "pr",
    "releaseDate": "2000-06-05 00:00:00",
    "border": "black",
    "type": "expansion",
    "block": "Masques",
    "onlineOnly": "0",
    "booster": [
      "rare",
      "uncommon",
      "uncommon",
      "uncommon",
      "common",
      "common",
      "common",
      "common",
      "common",
      "common",
      "common",
      "common",
      "common",
      "common",
      "common"
    ],
    "tcgplayerUrlPattern": "prophecy"
  },
  {
    "code": "BTD",
    "name": "Beatdown Box Set",
    "gathererCode": "BD",
    "oldCode": null,
    "magicCardsInfoCode": "bd",
    "releaseDate": "2000-10-01 00:00:00",
    "border": "white",
    "type": "box",
    "block": null,
    "onlineOnly": "0",
    "booster": null,
    "tcgplayerUrlPattern": "beatdown-box-set"
  },
  {
    "code": "INV",
    "name": "Invasion",
    "gathererCode": "IN",
    "oldCode": null,
    "magicCardsInfoCode": "in",
    "releaseDate": "2000-10-02 00:00:00",
    "border": "black",
    "type": "expansion",
    "block": "Invasion",
    "onlineOnly": "0",
    "booster": [
      "rare",
      "uncommon",
      "uncommon",
      "uncommon",
      "common",
      "common",
      "common",
      "common",
      "common",
      "common",
      "common",
      "common",
      "common",
      "common",
      "common"
    ],
    "tcgplayerUrlPattern": "invasion"
  },
  {
    "code": "PLS",
    "name": "Planeshift",
    "gathererCode": "PS",
    "oldCode": null,
    "magicCardsInfoCode": "ps",
    "releaseDate": "2001-02-05 00:00:00",
    "border": "black",
    "type": "expansion",
    "block": "Invasion",
    "onlineOnly": "0",
    "booster": [
      "rare",
      "uncommon",
      "uncommon",
      "uncommon",
      "common",
      "common",
      "common",
      "common",
      "common",
      "common",
      "common",
      "common",
      "common",
      "common",
      "common"
    ],
    "tcgplayerUrlPattern": "planeshift"
  },
  {
    "code": "7ED",
    "name": "Seventh Edition",
    "gathererCode": "7E",
    "oldCode": null,
    "magicCardsInfoCode": "7e",
    "releaseDate": "2001-04-11 00:00:00",
    "border": "white",
    "type": "core",
    "block": null,
    "onlineOnly": "0",
    "booster": [
      "rare",
      "uncommon",
      "uncommon",
      "uncommon",
      "common",
      "common",
      "common",
      "common",
      "common",
      "common",
      "common",
      "common",
      "common",
      "common",
      "land"
    ],
    "tcgplayerUrlPattern": "7th-edition"
  },
  {
    "code": "pMPR",
    "name": "Magic Player Rewards",
    "gathererCode": null,
    "oldCode": null,
    "magicCardsInfoCode": "mprp",
    "releaseDate": "2001-05-01 00:00:00",
    "border": "black",
    "type": "promo",
    "block": null,
    "onlineOnly": "0",
    "booster": null,
    "tcgplayerUrlPattern": "magic-player-rewards"
  },
  {
    "code": "APC",
    "name": "Apocalypse",
    "gathererCode": "AP",
    "oldCode": null,
    "magicCardsInfoCode": "ap",
    "releaseDate": "2001-06-04 00:00:00",
    "border": "black",
    "type": "expansion",
    "block": "Invasion",
    "onlineOnly": "0",
    "booster": [
      "rare",
      "uncommon",
      "uncommon",
      "uncommon",
      "common",
      "common",
      "common",
      "common",
      "common",
      "common",
      "common",
      "common",
      "common",
      "common",
      "common"
    ],
    "tcgplayerUrlPattern": "apocalypse"
  },
  {
    "code": "ODY",
    "name": "Odyssey",
    "gathererCode": "OD",
    "oldCode": null,
    "magicCardsInfoCode": "od",
    "releaseDate": "2001-10-01 00:00:00",
    "border": "black",
    "type": "expansion",
    "block": "Odyssey",
    "onlineOnly": "0",
    "booster": [
      "rare",
      "uncommon",
      "uncommon",
      "uncommon",
      "common",
      "common",
      "common",
      "common",
      "common",
      "common",
      "common",
      "common",
      "common",
      "common",
      "common"
    ],
    "tcgplayerUrlPattern": "odyssey"
  },
  {
    "code": "DKM",
    "name": "Deckmasters",
    "gathererCode": null,
    "oldCode": null,
    "magicCardsInfoCode": "dm",
    "releaseDate": "2001-12-01 00:00:00",
    "border": "white",
    "type": "box",
    "block": null,
    "onlineOnly": "0",
    "booster": null,
    "tcgplayerUrlPattern": null
  },
  {
    "code": "TOR",
    "name": "Torment",
    "gathererCode": null,
    "oldCode": null,
    "magicCardsInfoCode": "tr",
    "releaseDate": "2002-02-04 00:00:00",
    "border": "black",
    "type": "expansion",
    "block": "Odyssey",
    "onlineOnly": "0",
    "booster": [
      "rare",
      "uncommon",
      "uncommon",
      "uncommon",
      "common",
      "common",
      "common",
      "common",
      "common",
      "common",
      "common",
      "common",
      "common",
      "common",
      "common"
    ],
    "tcgplayerUrlPattern": "torment"
  },
  {
    "code": "JUD",
    "name": "Judgment",
    "gathererCode": null,
    "oldCode": null,
    "magicCardsInfoCode": "ju",
    "releaseDate": "2002-05-27 00:00:00",
    "border": "black",
    "type": "expansion",
    "block": "Odyssey",
    "onlineOnly": "0",
    "booster": [
      "rare",
      "uncommon",
      "uncommon",
      "uncommon",
      "common",
      "common",
      "common",
      "common",
      "common",
      "common",
      "common",
      "common",
      "common",
      "common",
      "common"
    ],
    "tcgplayerUrlPattern": "judgment"
  },
  {
    "code": "ONS",
    "name": "Onslaught",
    "gathererCode": null,
    "oldCode": null,
    "magicCardsInfoCode": "on",
    "releaseDate": "2002-10-07 00:00:00",
    "border": "black",
    "type": "expansion",
    "block": "Onslaught",
    "onlineOnly": "0",
    "booster": [
      "rare",
      "uncommon",
      "uncommon",
      "uncommon",
      "common",
      "common",
      "common",
      "common",
      "common",
      "common",
      "common",
      "common",
      "common",
      "common",
      "common"
    ],
    "tcgplayerUrlPattern": "onslaught"
  },
  {
    "code": "LGN",
    "name": "Legions",
    "gathererCode": null,
    "oldCode": null,
    "magicCardsInfoCode": "le",
    "releaseDate": "2003-02-03 00:00:00",
    "border": "black",
    "type": "expansion",
    "block": "Onslaught",
    "onlineOnly": "0",
    "booster": [
      "rare",
      "uncommon",
      "uncommon",
      "uncommon",
      "common",
      "common",
      "common",
      "common",
      "common",
      "common",
      "common",
      "common",
      "common",
      "common",
      "common"
    ],
    "tcgplayerUrlPattern": "legions"
  },
  {
    "code": "SCG",
    "name": "Scourge",
    "gathererCode": null,
    "oldCode": null,
    "magicCardsInfoCode": "sc",
    "releaseDate": "2003-05-26 00:00:00",
    "border": "black",
    "type": "expansion",
    "block": "Onslaught",
    "onlineOnly": "0",
    "booster": [
      "rare",
      "uncommon",
      "uncommon",
      "uncommon",
      "common",
      "common",
      "common",
      "common",
      "common",
      "common",
      "common",
      "common",
      "common",
      "common",
      "common"
    ],
    "tcgplayerUrlPattern": "scourge"
  },
  {
    "code": "pREL",
    "name": "Release Events",
    "gathererCode": null,
    "oldCode": null,
    "magicCardsInfoCode": "rep",
    "releaseDate": "2003-07-26 00:00:00",
    "border": "black",
    "type": "promo",
    "block": null,
    "onlineOnly": "0",
    "booster": null,
    "tcgplayerUrlPattern": "release-event-cards"
  },
  {
    "code": "8ED",
    "name": "Eighth Edition",
    "gathererCode": null,
    "oldCode": "8E",
    "magicCardsInfoCode": "8e",
    "releaseDate": "2003-07-28 00:00:00",
    "border": "white",
    "type": "core",
    "block": null,
    "onlineOnly": "0",
    "booster": [
      "rare",
      "uncommon",
      "uncommon",
      "uncommon",
      "common",
      "common",
      "common",
      "common",
      "common",
      "common",
      "common",
      "common",
      "common",
      "common",
      "land"
    ],
    "tcgplayerUrlPattern": "8th-edition"
  },
  {
    "code": "MRD",
    "name": "Mirrodin",
    "gathererCode": null,
    "oldCode": null,
    "magicCardsInfoCode": "mi",
    "releaseDate": "2003-10-02 00:00:00",
    "border": "black",
    "type": "expansion",
    "block": "Mirrodin",
    "onlineOnly": "0",
    "booster": [
      "rare",
      "uncommon",
      "uncommon",
      "uncommon",
      "common",
      "common",
      "common",
      "common",
      "common",
      "common",
      "common",
      "common",
      "common",
      "common",
      "common"
    ],
    "tcgplayerUrlPattern": "mirrodin"
  },
  {
    "code": "DST",
    "name": "Darksteel",
    "gathererCode": null,
    "oldCode": null,
    "magicCardsInfoCode": "ds",
    "releaseDate": "2004-02-06 00:00:00",
    "border": "black",
    "type": "expansion",
    "block": "Mirrodin",
    "onlineOnly": "0",
    "booster": [
      "rare",
      "uncommon",
      "uncommon",
      "uncommon",
      "common",
      "common",
      "common",
      "common",
      "common",
      "common",
      "common",
      "common",
      "common",
      "common",
      "common"
    ],
    "tcgplayerUrlPattern": "darksteel"
  },
  {
    "code": "5DN",
    "name": "Fifth Dawn",
    "gathererCode": null,
    "oldCode": null,
    "magicCardsInfoCode": "5dn",
    "releaseDate": "2004-06-04 00:00:00",
    "border": "black",
    "type": "expansion",
    "block": "Mirrodin",
    "onlineOnly": "0",
    "booster": [
      "rare",
      "uncommon",
      "uncommon",
      "uncommon",
      "common",
      "common",
      "common",
      "common",
      "common",
      "common",
      "common",
      "common",
      "common",
      "common",
      "common"
    ],
    "tcgplayerUrlPattern": "fifth-dawn"
  },
  {
    "code": "CHK",
    "name": "Champions of Kamigawa",
    "gathererCode": null,
    "oldCode": null,
    "magicCardsInfoCode": "chk",
    "releaseDate": "2004-10-01 00:00:00",
    "border": "black",
    "type": "expansion",
    "block": "Kamigawa",
    "onlineOnly": "0",
    "booster": [
      "rare",
      "uncommon",
      "uncommon",
      "uncommon",
      "common",
      "common",
      "common",
      "common",
      "common",
      "common",
      "common",
      "common",
      "common",
      "common",
      "common"
    ],
    "tcgplayerUrlPattern": "champions-of-kamigawa"
  },
  {
    "code": "UNH",
    "name": "Unhinged",
    "gathererCode": null,
    "oldCode": null,
    "magicCardsInfoCode": "uh",
    "releaseDate": "2004-11-20 00:00:00",
    "border": "silver",
    "type": "un",
    "block": null,
    "onlineOnly": "0",
    "booster": [
      "rare",
      "uncommon",
      "uncommon",
      "uncommon",
      "common",
      "common",
      "common",
      "common",
      "common",
      "common",
      "common",
      "common",
      "common",
      "common",
      "land"
    ],
    "tcgplayerUrlPattern": "unhinged"
  },
  {
    "code": "BOK",
    "name": "Betrayers of Kamigawa",
    "gathererCode": null,
    "oldCode": null,
    "magicCardsInfoCode": "bok",
    "releaseDate": "2005-02-04 00:00:00",
    "border": "black",
    "type": "expansion",
    "block": "Kamigawa",
    "onlineOnly": "0",
    "booster": [
      "rare",
      "uncommon",
      "uncommon",
      "uncommon",
      "common",
      "common",
      "common",
      "common",
      "common",
      "common",
      "common",
      "common",
      "common",
      "common",
      "common"
    ],
    "tcgplayerUrlPattern": "betrayers-of-kamigawa"
  },
  {
    "code": "SOK",
    "name": "Saviors of Kamigawa",
    "gathererCode": null,
    "oldCode": null,
    "magicCardsInfoCode": "sok",
    "releaseDate": "2005-06-03 00:00:00",
    "border": "black",
    "type": "expansion",
    "block": "Kamigawa",
    "onlineOnly": "0",
    "booster": [
      "rare",
      "uncommon",
      "uncommon",
      "uncommon",
      "common",
      "common",
      "common",
      "common",
      "common",
      "common",
      "common",
      "common",
      "common",
      "common",
      "common"
    ],
    "tcgplayerUrlPattern": "saviors-of-kamigawa"
  },
  {
    "code": "9ED",
    "name": "Ninth Edition",
    "gathererCode": null,
    "oldCode": "9E",
    "magicCardsInfoCode": "9e",
    "releaseDate": "2005-07-29 00:00:00",
    "border": "white",
    "type": "core",
    "block": null,
    "onlineOnly": "0",
    "booster": [
      "rare",
      "uncommon",
      "uncommon",
      "uncommon",
      "common",
      "common",
      "common",
      "common",
      "common",
      "common",
      "common",
      "common",
      "common",
      "common",
      "land"
    ],
    "tcgplayerUrlPattern": "9th-edition"
  },
  {
    "code": "RAV",
    "name": "Ravnica: City of Guilds",
    "gathererCode": null,
    "oldCode": null,
    "magicCardsInfoCode": "rav",
    "releaseDate": "2005-10-07 00:00:00",
    "border": "black",
    "type": "expansion",
    "block": "Ravnica",
    "onlineOnly": "0",
    "booster": [
      "rare",
      "uncommon",
      "uncommon",
      "uncommon",
      "common",
      "common",
      "common",
      "common",
      "common",
      "common",
      "common",
      "common",
      "common",
      "common",
      "common"
    ],
    "tcgplayerUrlPattern": "ravnica"
  },
  {
    "code": "p2HG",
    "name": "Two-Headed Giant Tournament",
    "gathererCode": null,
    "oldCode": null,
    "magicCardsInfoCode": "thgt",
    "releaseDate": "2005-12-09 00:00:00",
    "border": "black",
    "type": "promo",
    "block": null,
    "onlineOnly": "0",
    "booster": null,
    "tcgplayerUrlPattern": null
  },
  {
    "code": "pGTW",
    "name": "Gateway",
    "gathererCode": null,
    "oldCode": null,
    "magicCardsInfoCode": "grc",
    "releaseDate": "2006-01-01 00:00:00",
    "border": "black",
    "type": "promo",
    "block": null,
    "onlineOnly": "0",
    "booster": null,
    "tcgplayerUrlPattern": "gateway-promos"
  },
  {
    "code": "GPT",
    "name": "Guildpact",
    "gathererCode": null,
    "oldCode": null,
    "magicCardsInfoCode": "gp",
    "releaseDate": "2006-02-03 00:00:00",
    "border": "black",
    "type": "expansion",
    "block": "Ravnica",
    "onlineOnly": "0",
    "booster": [
      "rare",
      "uncommon",
      "uncommon",
      "uncommon",
      "common",
      "common",
      "common",
      "common",
      "common",
      "common",
      "common",
      "common",
      "common",
      "common",
      "common"
    ],
    "tcgplayerUrlPattern": "guildpact"
  },
  {
    "code": "pCMP",
    "name": "Champs and States",
    "gathererCode": null,
    "oldCode": null,
    "magicCardsInfoCode": "cp",
    "releaseDate": "2006-03-18 00:00:00",
    "border": "black",
    "type": "promo",
    "block": null,
    "onlineOnly": "0",
    "booster": null,
    "tcgplayerUrlPattern": "champs-promos"
  },
  {
    "code": "DIS",
    "name": "Dissension",
    "gathererCode": null,
    "oldCode": null,
    "magicCardsInfoCode": "di",
    "releaseDate": "2006-05-05 00:00:00",
    "border": "black",
    "type": "expansion",
    "block": "Ravnica",
    "onlineOnly": "0",
    "booster": [
      "rare",
      "uncommon",
      "uncommon",
      "uncommon",
      "common",
      "common",
      "common",
      "common",
      "common",
      "common",
      "common",
      "common",
      "common",
      "common",
      "common"
    ],
    "tcgplayerUrlPattern": "dissension"
  },
  {
    "code": "CSP",
    "name": "Coldsnap",
    "gathererCode": null,
    "oldCode": null,
    "magicCardsInfoCode": "cs",
    "releaseDate": "2006-07-21 00:00:00",
    "border": "black",
    "type": "expansion",
    "block": "Ice Age",
    "onlineOnly": "0",
    "booster": [
      "rare",
      "uncommon",
      "uncommon",
      "uncommon",
      "common",
      "common",
      "common",
      "common",
      "common",
      "common",
      "common",
      "common",
      "common",
      "common",
      "common"
    ],
    "tcgplayerUrlPattern": "coldsnap"
  },
  {
    "code": "CST",
    "name": "Coldsnap Theme Decks",
    "gathererCode": null,
    "oldCode": null,
    "magicCardsInfoCode": "cstd",
    "releaseDate": "2006-07-21 00:00:00",
    "border": "black",
    "type": "box",
    "block": null,
    "onlineOnly": "0",
    "booster": null,
    "tcgplayerUrlPattern": "coldsnap-theme-deck-reprints"
  },
  {
    "code": "TSP",
    "name": "Time Spiral",
    "gathererCode": null,
    "oldCode": null,
    "magicCardsInfoCode": "ts",
    "releaseDate": "2006-10-06 00:00:00",
    "border": "black",
    "type": "expansion",
    "block": "Time Spiral",
    "onlineOnly": "0",
    "booster": [
      "rare",
      "uncommon",
      "uncommon",
      "uncommon",
      "common",
      "common",
      "common",
      "common",
      "common",
      "common",
      "common",
      "common",
      "common",
      "common",
      "timeshifted purple"
    ],
    "tcgplayerUrlPattern": "time-spiral"
  },
  {
    "code": "TSB",
    "name": "Time Spiral \"Timeshifted\"",
    "gathererCode": null,
    "oldCode": null,
    "magicCardsInfoCode": "tsts",
    "releaseDate": "2006-10-06 00:00:00",
    "border": "black",
    "type": "expansion",
    "block": "Time Spiral",
    "onlineOnly": "0",
    "booster": [
      "rare",
      "uncommon",
      "uncommon",
      "uncommon",
      "common",
      "common",
      "common",
      "common",
      "common",
      "common",
      "common",
      "common",
      "common",
      "common",
      "timeshifted purple"
    ],
    "tcgplayerUrlPattern": "timeshifted"
  },
  {
    "code": "pHHO",
    "name": "Happy Holidays",
    "gathererCode": null,
    "oldCode": "HHO",
    "magicCardsInfoCode": "hho",
    "releaseDate": "2006-12-31 00:00:00",
    "border": "silver",
    "type": "promo",
    "block": null,
    "onlineOnly": "0",
    "booster": null,
    "tcgplayerUrlPattern": "special-occasion"
  },
  {
    "code": "PLC",
    "name": "Planar Chaos",
    "gathererCode": null,
    "oldCode": null,
    "magicCardsInfoCode": "pc",
    "releaseDate": "2007-02-02 00:00:00",
    "border": "black",
    "type": "expansion",
    "block": "Time Spiral",
    "onlineOnly": "0",
    "booster": [
      "rare",
      "uncommon",
      "uncommon",
      "common",
      "common",
      "common",
      "common",
      "common",
      "common",
      "common",
      "common",
      "timeshifted common",
      "timeshifted common",
      "timeshifted common",
      [
        "timeshifted rare",
        "timeshifted uncommon"
      ]
    ],
    "tcgplayerUrlPattern": "planar-chaos"
  },
  {
    "code": "pPRO",
    "name": "Pro Tour",
    "gathererCode": null,
    "oldCode": null,
    "magicCardsInfoCode": "pro",
    "releaseDate": "2007-02-09 00:00:00",
    "border": "black",
    "type": "promo",
    "block": null,
    "onlineOnly": "0",
    "booster": null,
    "tcgplayerUrlPattern": "pro-tour-promos"
  },
  {
    "code": "pGPX",
    "name": "Grand Prix",
    "gathererCode": null,
    "oldCode": null,
    "magicCardsInfoCode": "gpx",
    "releaseDate": "2007-02-24 00:00:00",
    "border": "black",
    "type": "promo",
    "block": null,
    "onlineOnly": "0",
    "booster": null,
    "tcgplayerUrlPattern": "grand-prix-promos"
  },
  {
    "code": "FUT",
    "name": "Future Sight",
    "gathererCode": null,
    "oldCode": null,
    "magicCardsInfoCode": "fut",
    "releaseDate": "2007-05-04 00:00:00",
    "border": "black",
    "type": "expansion",
    "block": "Time Spiral",
    "onlineOnly": "0",
    "booster": [
      [
        "rare",
        "timeshifted rare"
      ],
      [
        "uncommon",
        "timeshifted uncommon"
      ],
      [
        "uncommon",
        "timeshifted uncommon"
      ],
      [
        "uncommon",
        "timeshifted uncommon"
      ],
      [
        "common",
        "timeshifted common"
      ],
      [
        "common",
        "timeshifted common"
      ],
      [
        "common",
        "timeshifted common"
      ],
      [
        "common",
        "timeshifted common"
      ],
      [
        "common",
        "timeshifted common"
      ],
      [
        "common",
        "timeshifted common"
      ],
      [
        "common",
        "timeshifted common"
      ],
      [
        "common",
        "timeshifted common"
      ],
      [
        "common",
        "timeshifted common"
      ],
      [
        "common",
        "timeshifted common"
      ],
      [
        "common",
        "timeshifted common"
      ]
    ],
    "tcgplayerUrlPattern": "future-sight"
  },
  {
    "code": "10E",
    "name": "Tenth Edition",
    "gathererCode": null,
    "oldCode": null,
    "magicCardsInfoCode": "10e",
    "releaseDate": "2007-07-13 00:00:00",
    "border": "black",
    "type": "core",
    "block": null,
    "onlineOnly": "0",
    "booster": [
      "rare",
      "uncommon",
      "uncommon",
      "uncommon",
      "common",
      "common",
      "common",
      "common",
      "common",
      "common",
      "common",
      "common",
      "common",
      "common",
      "land",
      "marketing"
    ],
    "tcgplayerUrlPattern": "10th-edition"
  },
  {
    "code": "pMGD",
    "name": "Magic Game Day",
    "gathererCode": null,
    "oldCode": null,
    "magicCardsInfoCode": "mgdc",
    "releaseDate": "2007-07-14 00:00:00",
    "border": "black",
    "type": "promo",
    "block": null,
    "onlineOnly": "0",
    "booster": null,
    "tcgplayerUrlPattern": null
  },
  {
    "code": "MED",
    "name": "Masters Edition",
    "gathererCode": null,
    "oldCode": null,
    "magicCardsInfoCode": "med",
    "releaseDate": "2007-09-10 00:00:00",
    "border": "black",
    "type": "masters",
    "block": null,
    "onlineOnly": "1",
    "booster": [
      "rare",
      "uncommon",
      "uncommon",
      "uncommon",
      "common",
      "common",
      "common",
      "common",
      "common",
      "common",
      "common",
      "common",
      "common",
      "common",
      "land"
    ],
    "tcgplayerUrlPattern": null
  },
  {
    "code": "LRW",
    "name": "Lorwyn",
    "gathererCode": null,
    "oldCode": null,
    "magicCardsInfoCode": "lw",
    "releaseDate": "2007-10-12 00:00:00",
    "border": "black",
    "type": "expansion",
    "block": "Lorwyn",
    "onlineOnly": "0",
    "booster": [
      "rare",
      "uncommon",
      "uncommon",
      "uncommon",
      "common",
      "common",
      "common",
      "common",
      "common",
      "common",
      "common",
      "common",
      "common",
      "common",
      "common",
      "marketing"
    ],
    "tcgplayerUrlPattern": "lorwyn"
  },
  {
    "code": "EVG",
    "name": "Duel Decks: Elves vs. Goblins",
    "gathererCode": null,
    "oldCode": null,
    "magicCardsInfoCode": "evg",
    "releaseDate": "2007-11-16 00:00:00",
    "border": "black",
    "type": "duel deck",
    "block": null,
    "onlineOnly": "0",
    "booster": null,
    "tcgplayerUrlPattern": "duel-decks-elves-vs-goblins"
  },
  {
    "code": "pLPA",
    "name": "Launch Parties",
    "gathererCode": null,
    "oldCode": null,
    "magicCardsInfoCode": "mlp",
    "releaseDate": "2008-02-01 00:00:00",
    "border": "black",
    "type": "promo",
    "block": null,
    "onlineOnly": "0",
    "booster": null,
    "tcgplayerUrlPattern": "launch-party-cards"
  },
  {
    "code": "MOR",
    "name": "Morningtide",
    "gathererCode": null,
    "oldCode": null,
    "magicCardsInfoCode": "mt",
    "releaseDate": "2008-02-01 00:00:00",
    "border": "black",
    "type": "expansion",
    "block": "Lorwyn",
    "onlineOnly": "0",
    "booster": [
      "rare",
      "uncommon",
      "uncommon",
      "uncommon",
      "common",
      "common",
      "common",
      "common",
      "common",
      "common",
      "common",
      "common",
      "common",
      "common",
      "common",
      "marketing"
    ],
    "tcgplayerUrlPattern": "morningtide"
  },
  {
    "code": "p15A",
    "name": "15th Anniversary",
    "gathererCode": null,
    "oldCode": null,
    "magicCardsInfoCode": "15ann",
    "releaseDate": "2008-04-01 00:00:00",
    "border": "black",
    "type": "promo",
    "block": null,
    "onlineOnly": "0",
    "booster": null,
    "tcgplayerUrlPattern": null
  },
  {
    "code": "SHM",
    "name": "Shadowmoor",
    "gathererCode": null,
    "oldCode": null,
    "magicCardsInfoCode": "shm",
    "releaseDate": "2008-05-02 00:00:00",
    "border": "black",
    "type": "expansion",
    "block": "Shadowmoor",
    "onlineOnly": "0",
    "booster": [
      "rare",
      "uncommon",
      "uncommon",
      "uncommon",
      "common",
      "common",
      "common",
      "common",
      "common",
      "common",
      "common",
      "common",
      "common",
      "common",
      "common",
      "marketing"
    ],
    "tcgplayerUrlPattern": "shadowmoor"
  },
  {
    "code": "pSUM",
    "name": "Summer of Magic",
    "gathererCode": null,
    "oldCode": null,
    "magicCardsInfoCode": "sum",
    "releaseDate": "2007-07-21 00:00:00",
    "border": "black",
    "type": "promo",
    "block": null,
    "onlineOnly": "0",
    "booster": null,
    "tcgplayerUrlPattern": null
  },
  {
    "code": "EVE",
    "name": "Eventide",
    "gathererCode": null,
    "oldCode": null,
    "magicCardsInfoCode": "eve",
    "releaseDate": "2008-07-25 00:00:00",
    "border": "black",
    "type": "expansion",
    "block": "Shadowmoor",
    "onlineOnly": "0",
    "booster": [
      "rare",
      "uncommon",
      "uncommon",
      "uncommon",
      "common",
      "common",
      "common",
      "common",
      "common",
      "common",
      "common",
      "common",
      "common",
      "common",
      "common",
      "marketing"
    ],
    "tcgplayerUrlPattern": "eventide"
  },
  {
    "code": "DRB",
    "name": "From the Vault: Dragons",
    "gathererCode": null,
    "oldCode": null,
    "magicCardsInfoCode": "fvd",
    "releaseDate": "2008-08-29 00:00:00",
    "border": "black",
    "type": "from the vault",
    "block": null,
    "onlineOnly": "0",
    "booster": null,
    "tcgplayerUrlPattern": "from-the-vault-dragons"
  },
  {
    "code": "ME2",
    "name": "Masters Edition II",
    "gathererCode": null,
    "oldCode": null,
    "magicCardsInfoCode": "me2",
    "releaseDate": "2008-09-22 00:00:00",
    "border": "black",
    "type": "masters",
    "block": null,
    "onlineOnly": "1",
    "booster": [
      "rare",
      "uncommon",
      "uncommon",
      "uncommon",
      "common",
      "common",
      "common",
      "common",
      "common",
      "common",
      "common",
      "common",
      "common",
      "common",
      "land"
    ],
    "tcgplayerUrlPattern": null
  },
  {
    "code": "pWPN",
    "name": "Wizards Play Network",
    "gathererCode": null,
    "oldCode": null,
    "magicCardsInfoCode": "grc",
    "releaseDate": "2008-10-01 00:00:00",
    "border": "black",
    "type": "promo",
    "block": null,
    "onlineOnly": "0",
    "booster": null,
    "tcgplayerUrlPattern": "wpn-promos"
  },
  {
    "code": "ALA",
    "name": "Shards of Alara",
    "gathererCode": null,
    "oldCode": null,
    "magicCardsInfoCode": "ala",
    "releaseDate": "2008-10-03 00:00:00",
    "border": "black",
    "type": "expansion",
    "block": "Alara",
    "onlineOnly": "0",
    "booster": [
      [
        "rare",
        "mythic rare"
      ],
      "uncommon",
      "uncommon",
      "uncommon",
      "common",
      "common",
      "common",
      "common",
      "common",
      "common",
      "common",
      "common",
      "common",
      "common",
      "land",
      "marketing"
    ],
    "tcgplayerUrlPattern": "shards-of-alara"
  },
  {
    "code": "DD2",
    "name": "Duel Decks: Jace vs. Chandra",
    "gathererCode": null,
    "oldCode": "D2",
    "magicCardsInfoCode": "jvc",
    "releaseDate": "2008-11-07 00:00:00",
    "border": "black",
    "type": "duel deck",
    "block": null,
    "onlineOnly": "0",
    "booster": null,
    "tcgplayerUrlPattern": "duel-decks-jace-vs-chandra"
  },
  {
    "code": "CON",
    "name": "Conflux",
    "gathererCode": null,
    "oldCode": "CFX",
    "magicCardsInfoCode": "cfx",
    "releaseDate": "2009-02-06 00:00:00",
    "border": "black",
    "type": "expansion",
    "block": "Alara",
    "onlineOnly": "0",
    "booster": [
      [
        "rare",
        "mythic rare"
      ],
      "uncommon",
      "uncommon",
      "uncommon",
      "common",
      "common",
      "common",
      "common",
      "common",
      "common",
      "common",
      "common",
      "common",
      "common",
      "land",
      "marketing"
    ],
    "tcgplayerUrlPattern": "conflux"
  },
  {
    "code": "DDC",
    "name": "Duel Decks: Divine vs. Demonic",
    "gathererCode": null,
    "oldCode": null,
    "magicCardsInfoCode": "dvd",
    "releaseDate": "2009-04-10 00:00:00",
    "border": "black",
    "type": "duel deck",
    "block": null,
    "onlineOnly": "0",
    "booster": null,
    "tcgplayerUrlPattern": "duel-decks-divine-vs-demonic"
  },
  {
    "code": "ARB",
    "name": "Alara Reborn",
    "gathererCode": null,
    "oldCode": null,
    "magicCardsInfoCode": "arb",
    "releaseDate": "2009-04-30 00:00:00",
    "border": "black",
    "type": "expansion",
    "block": "Alara",
    "onlineOnly": "0",
    "booster": [
      [
        "rare",
        "mythic rare"
      ],
      "uncommon",
      "uncommon",
      "uncommon",
      "common",
      "common",
      "common",
      "common",
      "common",
      "common",
      "common",
      "common",
      "common",
      "common",
      "land",
      "marketing"
    ],
    "tcgplayerUrlPattern": "alara-reborn"
  },
  {
    "code": "M10",
    "name": "Magic 2010",
    "gathererCode": null,
    "oldCode": null,
    "magicCardsInfoCode": "m10",
    "releaseDate": "2009-07-17 00:00:00",
    "border": "black",
    "type": "core",
    "block": null,
    "onlineOnly": "0",
    "booster": [
      [
        "rare",
        "mythic rare"
      ],
      "uncommon",
      "uncommon",
      "uncommon",
      "common",
      "common",
      "common",
      "common",
      "common",
      "common",
      "common",
      "common",
      "common",
      "common",
      "land",
      "marketing"
    ],
    "tcgplayerUrlPattern": "magic-2010-m10"
  },
  {
    "code": "V09",
    "name": "From the Vault: Exiled",
    "gathererCode": null,
    "oldCode": "FVE",
    "magicCardsInfoCode": "fve",
    "releaseDate": "2009-08-28 00:00:00",
    "border": "black",
    "type": "from the vault",
    "block": null,
    "onlineOnly": "0",
    "booster": null,
    "tcgplayerUrlPattern": "from-the-vault-exiled"
  },
  {
    "code": "HOP",
    "name": "Planechase",
    "gathererCode": null,
    "oldCode": "PCH",
    "magicCardsInfoCode": "pch",
    "releaseDate": "2009-09-04 00:00:00",
    "border": "black",
    "type": "planechase",
    "block": null,
    "onlineOnly": "0",
    "booster": null,
    "tcgplayerUrlPattern": "planechase"
  },
  {
    "code": "ME3",
    "name": "Masters Edition III",
    "gathererCode": null,
    "oldCode": null,
    "magicCardsInfoCode": "me3",
    "releaseDate": "2009-09-07 00:00:00",
    "border": "black",
    "type": "masters",
    "block": null,
    "onlineOnly": "1",
    "booster": [
      "rare",
      "uncommon",
      "uncommon",
      "uncommon",
      "common",
      "common",
      "common",
      "common",
      "common",
      "common",
      "common",
      "common",
      "common",
      "common",
      "land"
    ],
    "tcgplayerUrlPattern": null
  },
  {
    "code": "ZEN",
    "name": "Zendikar",
    "gathererCode": null,
    "oldCode": null,
    "magicCardsInfoCode": "zen",
    "releaseDate": "2009-10-02 00:00:00",
    "border": "black",
    "type": "expansion",
    "block": "Zendikar",
    "onlineOnly": "0",
    "booster": [
      [
        "rare",
        "mythic rare"
      ],
      "uncommon",
      "uncommon",
      "uncommon",
      "common",
      "common",
      "common",
      "common",
      "common",
      "common",
      "common",
      "common",
      "common",
      "common",
      "land",
      "marketing"
    ],
    "tcgplayerUrlPattern": "zendikar"
  },
  {
    "code": "DDD",
    "name": "Duel Decks: Garruk vs. Liliana",
    "gathererCode": null,
    "oldCode": null,
    "magicCardsInfoCode": "gvl",
    "releaseDate": "2009-10-30 00:00:00",
    "border": "black",
    "type": "duel deck",
    "block": null,
    "onlineOnly": "0",
    "booster": null,
    "tcgplayerUrlPattern": "duel-decks-garruk-vs-liliana"
  },
  {
    "code": "H09",
    "name": "Premium Deck Series: Slivers",
    "gathererCode": null,
    "oldCode": null,
    "magicCardsInfoCode": "pds",
    "releaseDate": "2009-11-20 00:00:00",
    "border": "black",
    "type": "premium deck",
    "block": null,
    "onlineOnly": "0",
    "booster": null,
    "tcgplayerUrlPattern": "premium-deck-series-slivers"
  },
  {
    "code": "WWK",
    "name": "Worldwake",
    "gathererCode": null,
    "oldCode": null,
    "magicCardsInfoCode": "wwk",
    "releaseDate": "2010-02-05 00:00:00",
    "border": "black",
    "type": "expansion",
    "block": "Zendikar",
    "onlineOnly": "0",
    "booster": [
      [
        "rare",
        "mythic rare"
      ],
      "uncommon",
      "uncommon",
      "uncommon",
      "common",
      "common",
      "common",
      "common",
      "common",
      "common",
      "common",
      "common",
      "common",
      "common",
      "land",
      "marketing"
    ],
    "tcgplayerUrlPattern": "worldwake"
  },
  {
    "code": "DDE",
    "name": "Duel Decks: Phyrexia vs. the Coalition",
    "gathererCode": null,
    "oldCode": null,
    "magicCardsInfoCode": "pvc",
    "releaseDate": "2010-03-19 00:00:00",
    "border": "black",
    "type": "duel deck",
    "block": null,
    "onlineOnly": "0",
    "booster": null,
    "tcgplayerUrlPattern": "duel-decks-phyrexia-vs-the-coalition"
  },
  {
    "code": "ROE",
    "name": "Rise of the Eldrazi",
    "gathererCode": null,
    "oldCode": null,
    "magicCardsInfoCode": "roe",
    "releaseDate": "2010-04-23 00:00:00",
    "border": "black",
    "type": "expansion",
    "block": "Zendikar",
    "onlineOnly": "0",
    "booster": [
      [
        "rare",
        "mythic rare"
      ],
      "uncommon",
      "uncommon",
      "uncommon",
      "common",
      "common",
      "common",
      "common",
      "common",
      "common",
      "common",
      "common",
      "common",
      "common",
      "land",
      "marketing"
    ],
    "tcgplayerUrlPattern": "rise-of-the-eldrazi"
  },
  {
    "code": "DPA",
    "name": "Duels of the Planeswalkers",
    "gathererCode": null,
    "oldCode": null,
    "magicCardsInfoCode": "dpa",
    "releaseDate": "2010-06-04 00:00:00",
    "border": "black",
    "type": "box",
    "block": null,
    "onlineOnly": "0",
    "booster": null,
    "tcgplayerUrlPattern": "duels-of-the-planeswalkers"
  },
  {
    "code": "ARC",
    "name": "Archenemy",
    "gathererCode": null,
    "oldCode": null,
    "magicCardsInfoCode": "arc",
    "releaseDate": "2010-06-18 00:00:00",
    "border": "black",
    "type": "archenemy",
    "block": null,
    "onlineOnly": "0",
    "booster": null,
    "tcgplayerUrlPattern": "archenemy"
  },
  {
    "code": "M11",
    "name": "Magic 2011",
    "gathererCode": null,
    "oldCode": null,
    "magicCardsInfoCode": "m11",
    "releaseDate": "2010-07-16 00:00:00",
    "border": "black",
    "type": "core",
    "block": null,
    "onlineOnly": "0",
    "booster": [
      [
        "rare",
        "mythic rare"
      ],
      "uncommon",
      "uncommon",
      "uncommon",
      "common",
      "common",
      "common",
      "common",
      "common",
      "common",
      "common",
      "common",
      "common",
      "common",
      "land",
      "marketing"
    ],
    "tcgplayerUrlPattern": "magic-2011-m11"
  },
  {
    "code": "V10",
    "name": "From the Vault: Relics",
    "gathererCode": null,
    "oldCode": null,
    "magicCardsInfoCode": "fvr",
    "releaseDate": "2010-08-27 00:00:00",
    "border": "black",
    "type": "from the vault",
    "block": null,
    "onlineOnly": "0",
    "booster": null,
    "tcgplayerUrlPattern": "from-the-vault-relics"
  },
  {
    "code": "DDF",
    "name": "Duel Decks: Elspeth vs. Tezzeret",
    "gathererCode": null,
    "oldCode": null,
    "magicCardsInfoCode": "ddf",
    "releaseDate": "2010-09-03 00:00:00",
    "border": "black",
    "type": "duel deck",
    "block": null,
    "onlineOnly": "0",
    "booster": null,
    "tcgplayerUrlPattern": "duel-decks-elspeth-vs-tezzeret"
  },
  {
    "code": "SOM",
    "name": "Scars of Mirrodin",
    "gathererCode": null,
    "oldCode": null,
    "magicCardsInfoCode": "som",
    "releaseDate": "2010-10-01 00:00:00",
    "border": "black",
    "type": "expansion",
    "block": "Scars of Mirrodin",
    "onlineOnly": "0",
    "booster": [
      [
        "rare",
        "mythic rare"
      ],
      "uncommon",
      "uncommon",
      "uncommon",
      "common",
      "common",
      "common",
      "common",
      "common",
      "common",
      "common",
      "common",
      "common",
      "common",
      "land",
      "marketing"
    ],
    "tcgplayerUrlPattern": "scars-of-mirrodin"
  },
  {
    "code": "PD2",
    "name": "Premium Deck Series: Fire and Lightning",
    "gathererCode": null,
    "oldCode": null,
    "magicCardsInfoCode": "pd2",
    "releaseDate": "2010-11-19 00:00:00",
    "border": "black",
    "type": "premium deck",
    "block": null,
    "onlineOnly": "0",
    "booster": null,
    "tcgplayerUrlPattern": "premium-deck-series-fire-and-lightning"
  },
  {
    "code": "ME4",
    "name": "Masters Edition IV",
    "gathererCode": null,
    "oldCode": null,
    "magicCardsInfoCode": "me4",
    "releaseDate": "2011-01-10 00:00:00",
    "border": "black",
    "type": "masters",
    "block": null,
    "onlineOnly": "1",
    "booster": [
      "rare",
      "uncommon",
      "uncommon",
      "uncommon",
      "common",
      "common",
      "common",
      "common",
      "common",
      "common",
      "common",
      "common",
      "common",
      "common",
      "urza land"
    ],
    "tcgplayerUrlPattern": null
  },
  {
    "code": "MBS",
    "name": "Mirrodin Besieged",
    "gathererCode": null,
    "oldCode": null,
    "magicCardsInfoCode": "mbs",
    "releaseDate": "2011-02-04 00:00:00",
    "border": "black",
    "type": "expansion",
    "block": "Scars of Mirrodin",
    "onlineOnly": "0",
    "booster": [
      [
        "rare",
        "mythic rare"
      ],
      "uncommon",
      "uncommon",
      "uncommon",
      "common",
      "common",
      "common",
      "common",
      "common",
      "common",
      "common",
      "common",
      "common",
      "common",
      "land",
      "marketing"
    ],
    "tcgplayerUrlPattern": "mirrodin-besieged"
  },
  {
    "code": "DDG",
    "name": "Duel Decks: Knights vs. Dragons",
    "gathererCode": null,
    "oldCode": null,
    "magicCardsInfoCode": "ddg",
    "releaseDate": "2011-04-01 00:00:00",
    "border": "black",
    "type": "duel deck",
    "block": null,
    "onlineOnly": "0",
    "booster": null,
    "tcgplayerUrlPattern": "duel-decks-knights-vs-dragons"
  },
  {
    "code": "NPH",
    "name": "New Phyrexia",
    "gathererCode": null,
    "oldCode": null,
    "magicCardsInfoCode": "nph",
    "releaseDate": "2011-05-13 00:00:00",
    "border": "black",
    "type": "expansion",
    "block": "Scars of Mirrodin",
    "onlineOnly": "0",
    "booster": [
      [
        "rare",
        "mythic rare"
      ],
      "uncommon",
      "uncommon",
      "uncommon",
      "common",
      "common",
      "common",
      "common",
      "common",
      "common",
      "common",
      "common",
      "common",
      "common",
      "land",
      "marketing"
    ],
    "tcgplayerUrlPattern": "new-phyrexia"
  },
  {
    "code": "CMD",
    "name": "Magic: The Gathering-Commander",
    "gathererCode": null,
    "oldCode": "COM",
    "magicCardsInfoCode": "cmd",
    "releaseDate": "2011-06-17 00:00:00",
    "border": "black",
    "type": "commander",
    "block": null,
    "onlineOnly": "0",
    "booster": null,
    "tcgplayerUrlPattern": "commanders-arsenal"
  },
  {
    "code": "M12",
    "name": "Magic 2012",
    "gathererCode": null,
    "oldCode": null,
    "magicCardsInfoCode": "m12",
    "releaseDate": "2011-07-15 00:00:00",
    "border": "black",
    "type": "core",
    "block": null,
    "onlineOnly": "0",
    "booster": [
      [
        "rare",
        "mythic rare"
      ],
      "uncommon",
      "uncommon",
      "uncommon",
      "common",
      "common",
      "common",
      "common",
      "common",
      "common",
      "common",
      "common",
      "common",
      "common",
      "land",
      "marketing"
    ],
    "tcgplayerUrlPattern": "magic-2012-m12"
  },
  {
    "code": "V11",
    "name": "From the Vault: Legends",
    "gathererCode": null,
    "oldCode": "FVL",
    "magicCardsInfoCode": "fvl",
    "releaseDate": "2011-08-26 00:00:00",
    "border": "black",
    "type": "from the vault",
    "block": null,
    "onlineOnly": "0",
    "booster": null,
    "tcgplayerUrlPattern": "from-the-vault-legends"
  },
  {
    "code": "DDH",
    "name": "Duel Decks: Ajani vs. Nicol Bolas",
    "gathererCode": null,
    "oldCode": null,
    "magicCardsInfoCode": "ddh",
    "releaseDate": "2011-09-02 00:00:00",
    "border": "black",
    "type": "duel deck",
    "block": null,
    "onlineOnly": "0",
    "booster": null,
    "tcgplayerUrlPattern": "duel-decks-ajani-vs-nicol-bolas"
  },
  {
    "code": "ISD",
    "name": "Innistrad",
    "gathererCode": null,
    "oldCode": null,
    "magicCardsInfoCode": "isd",
    "releaseDate": "2011-09-30 00:00:00",
    "border": "black",
    "type": "expansion",
    "block": "Innistrad",
    "onlineOnly": "0",
    "booster": [
      [
        "rare",
        "mythic rare"
      ],
      "uncommon",
      "uncommon",
      "uncommon",
      "common",
      "common",
      "common",
      "common",
      "common",
      "common",
      "common",
      "common",
      "common",
      [
        "land",
        "checklist"
      ],
      "marketing",
      "double faced"
    ],
    "tcgplayerUrlPattern": "innistrad"
  },
  {
    "code": "PD3",
    "name": "Premium Deck Series: Graveborn",
    "gathererCode": null,
    "oldCode": null,
    "magicCardsInfoCode": "pd3",
    "releaseDate": "2011-11-18 00:00:00",
    "border": "black",
    "type": "premium deck",
    "block": null,
    "onlineOnly": "0",
    "booster": null,
    "tcgplayerUrlPattern": "premium-deck-series-graveborn"
  },
  {
    "code": "DKA",
    "name": "Dark Ascension",
    "gathererCode": null,
    "oldCode": null,
    "magicCardsInfoCode": "dka",
    "releaseDate": "2012-02-03 00:00:00",
    "border": "black",
    "type": "expansion",
    "block": "Innistrad",
    "onlineOnly": "0",
    "booster": [
      [
        "rare",
        "mythic rare"
      ],
      "uncommon",
      "uncommon",
      "uncommon",
      "common",
      "common",
      "common",
      "common",
      "common",
      "common",
      "common",
      "common",
      "common",
      "common",
      "land",
      "marketing"
    ],
    "tcgplayerUrlPattern": "dark-ascension"
  },
  {
    "code": "DDI",
    "name": "Duel Decks: Venser vs. Koth",
    "gathererCode": null,
    "oldCode": null,
    "magicCardsInfoCode": "ddi",
    "releaseDate": "2012-03-30 00:00:00",
    "border": "black",
    "type": "duel deck",
    "block": null,
    "onlineOnly": "0",
    "booster": null,
    "tcgplayerUrlPattern": "duel-decks-venser-vs-koth"
  },
  {
    "code": "AVR",
    "name": "Avacyn Restored",
    "gathererCode": null,
    "oldCode": null,
    "magicCardsInfoCode": "avr",
    "releaseDate": "2012-05-04 00:00:00",
    "border": "black",
    "type": "expansion",
    "block": "Innistrad",
    "onlineOnly": "0",
    "booster": [
      [
        "rare",
        "mythic rare"
      ],
      "uncommon",
      "uncommon",
      "uncommon",
      "common",
      "common",
      "common",
      "common",
      "common",
      "common",
      "common",
      "common",
      "common",
      "common",
      "land",
      "marketing"
    ],
    "tcgplayerUrlPattern": "avacyn-restored"
  },
  {
    "code": "PC2",
    "name": "Planechase 2012 Edition",
    "gathererCode": null,
    "oldCode": null,
    "magicCardsInfoCode": "pc2",
    "releaseDate": "2012-06-01 00:00:00",
    "border": "black",
    "type": "planechase",
    "block": null,
    "onlineOnly": "0",
    "booster": null,
    "tcgplayerUrlPattern": "planechase-2012"
  },
  {
    "code": "M13",
    "name": "Magic 2013",
    "gathererCode": null,
    "oldCode": null,
    "magicCardsInfoCode": "m13",
    "releaseDate": "2012-07-13 00:00:00",
    "border": "black",
    "type": "core",
    "block": null,
    "onlineOnly": "0",
    "booster": [
      [
        "rare",
        "mythic rare"
      ],
      "uncommon",
      "uncommon",
      "uncommon",
      "common",
      "common",
      "common",
      "common",
      "common",
      "common",
      "common",
      "common",
      "common",
      "common",
      "land",
      "marketing"
    ],
    "tcgplayerUrlPattern": "magic-2013-m13"
  },
  {
    "code": "V12",
    "name": "From the Vault: Realms",
    "gathererCode": null,
    "oldCode": "FVR",
    "magicCardsInfoCode": "v12",
    "releaseDate": "2012-08-31 00:00:00",
    "border": "black",
    "type": "from the vault",
    "block": null,
    "onlineOnly": "0",
    "booster": null,
    "tcgplayerUrlPattern": "from-the-vault-realms"
  },
  {
    "code": "DDJ",
    "name": "Duel Decks: Izzet vs. Golgari",
    "gathererCode": null,
    "oldCode": null,
    "magicCardsInfoCode": "ddj",
    "releaseDate": "2012-09-07 00:00:00",
    "border": "black",
    "type": "duel deck",
    "block": null,
    "onlineOnly": "0",
    "booster": null,
    "tcgplayerUrlPattern": "duel-decks-izzet-vs-golgari"
  },
  {
    "code": "RTR",
    "name": "Return to Ravnica",
    "gathererCode": null,
    "oldCode": null,
    "magicCardsInfoCode": "rtr",
    "releaseDate": "2012-10-05 00:00:00",
    "border": "black",
    "type": "expansion",
    "block": "Return to Ravnica",
    "onlineOnly": "0",
    "booster": [
      [
        "rare",
        "mythic rare"
      ],
      "uncommon",
      "uncommon",
      "uncommon",
      "common",
      "common",
      "common",
      "common",
      "common",
      "common",
      "common",
      "common",
      "common",
      "common",
      "land",
      "marketing"
    ],
    "tcgplayerUrlPattern": "return-to-ravnica"
  },
  {
    "code": "CM1",
    "name": "Commander's Arsenal",
    "gathererCode": null,
    "oldCode": "CMA",
    "magicCardsInfoCode": "cma",
    "releaseDate": "2012-11-02 00:00:00",
    "border": "black",
    "type": "commander",
    "block": null,
    "onlineOnly": "0",
    "booster": null,
    "tcgplayerUrlPattern": "commander"
  },
  {
    "code": "GTC",
    "name": "Gatecrash",
    "gathererCode": null,
    "oldCode": null,
    "magicCardsInfoCode": "gtc",
    "releaseDate": "2013-02-01 00:00:00",
    "border": "black",
    "type": "expansion",
    "block": "Return to Ravnica",
    "onlineOnly": "0",
    "booster": [
      [
        "rare",
        "mythic rare"
      ],
      "uncommon",
      "uncommon",
      "uncommon",
      "common",
      "common",
      "common",
      "common",
      "common",
      "common",
      "common",
      "common",
      "common",
      "common",
      "land",
      "marketing"
    ],
    "tcgplayerUrlPattern": "gatecrash"
  },
  {
    "code": "DDK",
    "name": "Duel Decks: Sorin vs. Tibalt",
    "gathererCode": null,
    "oldCode": null,
    "magicCardsInfoCode": "ddk",
    "releaseDate": "2013-03-15 00:00:00",
    "border": "black",
    "type": "duel deck",
    "block": null,
    "onlineOnly": "0",
    "booster": null,
    "tcgplayerUrlPattern": "duel-decks-sorin-vs-tibalt"
  },
  {
    "code": "pWCQ",
    "name": "World Magic Cup Qualifiers",
    "gathererCode": null,
    "oldCode": null,
    "magicCardsInfoCode": "wmcq",
    "releaseDate": "2013-04-06 00:00:00",
    "border": "black",
    "type": "promo",
    "block": null,
    "onlineOnly": "0",
    "booster": null,
    "tcgplayerUrlPattern": null
  },
  {
    "code": "DGM",
    "name": "Dragon's Maze",
    "gathererCode": null,
    "oldCode": null,
    "magicCardsInfoCode": "dgm",
    "releaseDate": "2013-05-03 00:00:00",
    "border": "black",
    "type": "expansion",
    "block": "Return to Ravnica",
    "onlineOnly": "0",
    "booster": [
      [
        "rare",
        "mythic rare"
      ],
      "uncommon",
      "uncommon",
      "uncommon",
      "common",
      "common",
      "common",
      "common",
      "common",
      "common",
      "common",
      "common",
      "common",
      "common",
      "land",
      "marketing"
    ],
    "tcgplayerUrlPattern": "dragons-maze"
  },
  {
    "code": "MMA",
    "name": "Modern Masters",
    "gathererCode": null,
    "oldCode": null,
    "magicCardsInfoCode": "mma",
    "releaseDate": "2013-06-07 00:00:00",
    "border": "black",
    "type": "reprint",
    "block": null,
    "onlineOnly": "0",
    "booster": [
      [
        "rare",
        "mythic rare"
      ],
      "uncommon",
      "uncommon",
      "uncommon",
      "common",
      "common",
      "common",
      "common",
      "common",
      "common",
      "common",
      "common",
      "common",
      "common",
      [
        "foil mythic rare",
        "foil rare",
        "foil uncommon",
        "foil common"
      ]
    ],
    "tcgplayerUrlPattern": "modern-masters"
  },
  {
    "code": "M14",
    "name": "Magic 2014 Core Set",
    "gathererCode": null,
    "oldCode": null,
    "magicCardsInfoCode": "m14",
    "releaseDate": "2013-07-19 00:00:00",
    "border": "black",
    "type": "core",
    "block": null,
    "onlineOnly": "0",
    "booster": [
      [
        "rare",
        "mythic rare"
      ],
      "uncommon",
      "uncommon",
      "uncommon",
      "common",
      "common",
      "common",
      "common",
      "common",
      "common",
      "common",
      "common",
      "common",
      "common",
      "land",
      "marketing"
    ],
    "tcgplayerUrlPattern": "magic-2014-m14"
  },
  {
    "code": "V13",
    "name": "From the Vault: Twenty",
    "gathererCode": null,
    "oldCode": null,
    "magicCardsInfoCode": "v13",
    "releaseDate": "2013-08-23 00:00:00",
    "border": "black",
    "type": "from the vault",
    "block": null,
    "onlineOnly": "0",
    "booster": null,
    "tcgplayerUrlPattern": "from-the-vault-twenty"
  },
  {
    "code": "DDL",
    "name": "Duel Decks: Heroes vs. Monsters",
    "gathererCode": null,
    "oldCode": null,
    "magicCardsInfoCode": "ddl",
    "releaseDate": "2013-09-06 00:00:00",
    "border": "black",
    "type": "duel deck",
    "block": null,
    "onlineOnly": "0",
    "booster": null,
    "tcgplayerUrlPattern": "duel-decks-heroes-vs-monsters"
  },
  {
    "code": "THS",
    "name": "Theros",
    "gathererCode": null,
    "oldCode": null,
    "magicCardsInfoCode": "ths",
    "releaseDate": "2013-09-27 00:00:00",
    "border": "black",
    "type": "expansion",
    "block": "Theros",
    "onlineOnly": "0",
    "booster": [
      [
        "rare",
        "mythic rare"
      ],
      "uncommon",
      "uncommon",
      "uncommon",
      "common",
      "common",
      "common",
      "common",
      "common",
      "common",
      "common",
      "common",
      "common",
      "common",
      "land",
      "marketing"
    ],
    "tcgplayerUrlPattern": "theros"
  },
  {
    "code": "C13",
    "name": "Commander 2013 Edition",
    "gathererCode": null,
    "oldCode": null,
    "magicCardsInfoCode": "c13",
    "releaseDate": "2013-11-01 00:00:00",
    "border": "black",
    "type": "commander",
    "block": null,
    "onlineOnly": "0",
    "booster": null,
    "tcgplayerUrlPattern": "commander-2013"
  },
  {
    "code": "BNG",
    "name": "Born of the Gods",
    "gathererCode": null,
    "oldCode": null,
    "magicCardsInfoCode": "bng",
    "releaseDate": "2014-02-07 00:00:00",
    "border": "black",
    "type": "expansion",
    "block": "Theros",
    "onlineOnly": "0",
    "booster": [
      [
        "rare",
        "mythic rare"
      ],
      "uncommon",
      "uncommon",
      "uncommon",
      "common",
      "common",
      "common",
      "common",
      "common",
      "common",
      "common",
      "common",
      "common",
      "common",
      "land",
      "marketing"
    ],
    "tcgplayerUrlPattern": "born-of-the-gods"
  },
  {
    "code": "DDM",
    "name": "Duel Decks: Jace vs. Vraska",
    "gathererCode": null,
    "oldCode": null,
    "magicCardsInfoCode": "ddm",
    "releaseDate": "2014-03-14 00:00:00",
    "border": "black",
    "type": "duel deck",
    "block": null,
    "onlineOnly": "0",
    "booster": null,
    "tcgplayerUrlPattern": "duel-decks-jace-vs-vraska"
  },
  {
    "code": "JOU",
    "name": "Journey into Nyx",
    "gathererCode": null,
    "oldCode": null,
    "magicCardsInfoCode": "jou",
    "releaseDate": "2014-05-02 00:00:00",
    "border": "black",
    "type": "expansion",
    "block": "Theros",
    "onlineOnly": "0",
    "booster": [
      [
        "rare",
        "mythic rare"
      ],
      "uncommon",
      "uncommon",
      "uncommon",
      "common",
      "common",
      "common",
      "common",
      "common",
      "common",
      "common",
      "common",
      "common",
      "common",
      "land",
      "marketing"
    ],
    "tcgplayerUrlPattern": "journey-into-nyx"
  },
  {
    "code": "MD1",
    "name": "Modern Event Deck 2014",
    "gathererCode": null,
    "oldCode": null,
    "magicCardsInfoCode": "md1",
    "releaseDate": "2014-05-30 00:00:00",
    "border": "black",
    "type": "box",
    "block": null,
    "onlineOnly": "0",
    "booster": null,
    "tcgplayerUrlPattern": "magic-modern-event-deck"
  },
  {
    "code": "CNS",
    "name": "Magic: The Gathering\u2014Conspiracy",
    "gathererCode": null,
    "oldCode": null,
    "magicCardsInfoCode": "cns",
    "releaseDate": "2014-06-06 00:00:00",
    "border": "black",
    "type": "conspiracy",
    "block": null,
    "onlineOnly": "0",
    "booster": [
      [
        "rare",
        "mythic rare"
      ],
      "uncommon",
      "uncommon",
      "uncommon",
      "common",
      "common",
      "common",
      "common",
      "common",
      "common",
      "common",
      "common",
      "common",
      "common",
      "draft-matters",
      "marketing"
    ],
    "tcgplayerUrlPattern": "conspiracy"
  },
  {
    "code": "VMA",
    "name": "Vintage Masters",
    "gathererCode": null,
    "oldCode": null,
    "magicCardsInfoCode": "vma",
    "releaseDate": "2014-06-16 00:00:00",
    "border": "black",
    "type": "masters",
    "block": null,
    "onlineOnly": "1",
    "booster": [
      [
        "rare",
        "mythic rare"
      ],
      "uncommon",
      "uncommon",
      "uncommon",
      "common",
      "common",
      "common",
      "common",
      "common",
      "common",
      "common",
      "common",
      "common",
      "common",
      [
        "power nine",
        "foil"
      ]
    ],
    "tcgplayerUrlPattern": null
  },
  {
    "code": "M15",
    "name": "Magic 2015 Core Set",
    "gathererCode": null,
    "oldCode": null,
    "magicCardsInfoCode": "m15",
    "releaseDate": "2014-07-18 00:00:00",
    "border": "black",
    "type": "core",
    "block": null,
    "onlineOnly": "0",
    "booster": [
      [
        "rare",
        "mythic rare"
      ],
      "uncommon",
      "uncommon",
      "uncommon",
      "common",
      "common",
      "common",
      "common",
      "common",
      "common",
      "common",
      "common",
      "common",
      "common",
      "land",
      "marketing"
    ],
    "tcgplayerUrlPattern": "magic-2015-m15"
  },
  {
    "code": "CPK",
    "name": "Clash Pack",
    "gathererCode": null,
    "oldCode": null,
    "magicCardsInfoCode": "clash",
    "releaseDate": "2014-07-18 00:00:00",
    "border": "black",
    "type": "starter",
    "block": null,
    "onlineOnly": "0",
    "booster": null,
    "tcgplayerUrlPattern": "clash-pack"
  },
  {
    "code": "V14",
    "name": "From the Vault: Annihilation (2014)",
    "gathererCode": null,
    "oldCode": null,
    "magicCardsInfoCode": "v14",
    "releaseDate": "2014-08-22 00:00:00",
    "border": "black",
    "type": "from the vault",
    "block": null,
    "onlineOnly": "0",
    "booster": null,
    "tcgplayerUrlPattern": "from-the-vault-annihilation"
  },
  {
    "code": "DDN",
    "name": "Duel Decks: Speed vs. Cunning",
    "gathererCode": null,
    "oldCode": null,
    "magicCardsInfoCode": "ddn",
    "releaseDate": "2014-09-05 00:00:00",
    "border": "black",
    "type": "duel deck",
    "block": null,
    "onlineOnly": "0",
    "booster": null,
    "tcgplayerUrlPattern": "duel-decks-speed-vs-cunning"
  },
  {
    "code": "KTK",
    "name": "Khans of Tarkir",
    "gathererCode": null,
    "oldCode": null,
    "magicCardsInfoCode": "ktk",
    "releaseDate": "2014-09-26 00:00:00",
    "border": "black",
    "type": "expansion",
    "block": "Khans of Tarkir",
    "onlineOnly": "0",
    "booster": [
      [
        "rare",
        "mythic rare"
      ],
      "uncommon",
      "uncommon",
      "uncommon",
      "common",
      "common",
      "common",
      "common",
      "common",
      "common",
      "common",
      "common",
      "common",
      "common",
      "land",
      "marketing"
    ],
    "tcgplayerUrlPattern": "khans-of-tarkir"
  },
  {
    "code": "C14",
    "name": "Commander 2014",
    "gathererCode": null,
    "oldCode": null,
    "magicCardsInfoCode": "c14",
    "releaseDate": "2014-11-07 00:00:00",
    "border": "black",
    "type": "commander",
    "block": null,
    "onlineOnly": "0",
    "booster": null,
    "tcgplayerUrlPattern": "commander-2014"
  },
  {
    "code": "DD3_DVD",
    "name": "Duel Decks Anthology, Divine vs. Demonic",
    "gathererCode": null,
    "oldCode": null,
    "magicCardsInfoCode": "ddadvd",
    "releaseDate": "2014-12-05 00:00:00",
    "border": "black",
    "type": "duel deck",
    "block": null,
    "onlineOnly": "0",
    "booster": null,
    "tcgplayerUrlPattern": "duel-decks-anthology"
  },
  {
    "code": "DD3_EVG",
    "name": "Duel Decks Anthology, Elves vs. Goblins",
    "gathererCode": null,
    "oldCode": null,
    "magicCardsInfoCode": "ddaevg",
    "releaseDate": "2014-12-05 00:00:00",
    "border": "black",
    "type": "duel deck",
    "block": null,
    "onlineOnly": "0",
    "booster": null,
    "tcgplayerUrlPattern": "duel-decks-anthology"
  },
  {
    "code": "DD3_GVL",
    "name": "Duel Decks Anthology, Garruk vs. Liliana",
    "gathererCode": null,
    "oldCode": null,
    "magicCardsInfoCode": "ddagvl",
    "releaseDate": "2014-12-05 00:00:00",
    "border": "black",
    "type": "duel deck",
    "block": null,
    "onlineOnly": "0",
    "booster": null,
    "tcgplayerUrlPattern": "duel-decks-anthology"
  },
  {
    "code": "DD3_JVC",
    "name": "Duel Decks Anthology, Jace vs. Chandra",
    "gathererCode": null,
    "oldCode": null,
    "magicCardsInfoCode": "ddajvc",
    "releaseDate": "2014-12-05 00:00:00",
    "border": "black",
    "type": "duel deck",
    "block": null,
    "onlineOnly": "0",
    "booster": null,
    "tcgplayerUrlPattern": "duel-decks-anthology"
  },
  {
    "code": "FRF_UGIN",
    "name": "Ugin's Fate promos",
    "gathererCode": null,
    "oldCode": null,
    "magicCardsInfoCode": "ugin",
    "releaseDate": "2015-01-17 00:00:00",
    "border": "black",
    "type": "promo",
    "block": null,
    "onlineOnly": "0",
    "booster": null,
    "tcgplayerUrlPattern": "ugins-fate-promos"
  },
  {
    "code": "FRF",
    "name": "Fate Reforged",
    "gathererCode": null,
    "oldCode": null,
    "magicCardsInfoCode": "frf",
    "releaseDate": "2015-01-23 00:00:00",
    "border": "black",
    "type": "expansion",
    "block": "Khans of Tarkir",
    "onlineOnly": "0",
    "booster": [
      [
        "rare",
        "mythic rare"
      ],
      "uncommon",
      "uncommon",
      "uncommon",
      "common",
      "common",
      "common",
      "common",
      "common",
      "common",
      "common",
      "common",
      "common",
      "common",
      "land",
      "marketing"
    ],
    "tcgplayerUrlPattern": "fate-reforged"
  },
  {
    "code": "DDO",
    "name": "Duel Decks: Elspeth vs. Kiora",
    "gathererCode": null,
    "oldCode": null,
    "magicCardsInfoCode": "ddo",
    "releaseDate": "2015-02-27 00:00:00",
    "border": "black",
    "type": "duel deck",
    "block": null,
    "onlineOnly": "0",
    "booster": null,
    "tcgplayerUrlPattern": "duel-decks-elspeth-vs-kiora"
  },
  {
    "code": "DTK",
    "name": "Dragons of Tarkir",
    "gathererCode": null,
    "oldCode": null,
    "magicCardsInfoCode": "dtk",
    "releaseDate": "2015-03-27 00:00:00",
    "border": "black",
    "type": "expansion",
    "block": "Khans of Tarkir",
    "onlineOnly": "0",
    "booster": [
      [
        "rare",
        "mythic rare"
      ],
      "uncommon",
      "uncommon",
      "uncommon",
      "common",
      "common",
      "common",
      "common",
      "common",
      "common",
      "common",
      "common",
      "common",
      "common",
      "land",
      "marketing"
    ],
    "tcgplayerUrlPattern": "dragons-of-tarkir"
  },
  {
    "code": "TPR",
    "name": "Tempest Remastered",
    "gathererCode": null,
    "oldCode": null,
    "magicCardsInfoCode": "tpr",
    "releaseDate": "2015-05-06 00:00:00",
    "border": "black",
    "type": "reprint",
    "block": null,
    "onlineOnly": "1",
    "booster": [
      [
        "rare",
        "mythic rare"
      ],
      "uncommon",
      "uncommon",
      "uncommon",
      "common",
      "common",
      "common",
      "common",
      "common",
      "common",
      "common",
      "common",
      "common",
      "common",
      "land"
    ],
    "tcgplayerUrlPattern": null
  },
  {
    "code": "MM2",
    "name": "Modern Masters 2015 Edition",
    "gathererCode": null,
    "oldCode": null,
    "magicCardsInfoCode": "mm2",
    "releaseDate": "2015-05-22 00:00:00",
    "border": "black",
    "type": "reprint",
    "block": null,
    "onlineOnly": "0",
    "booster": [
      [
        "rare",
        "mythic rare"
      ],
      "uncommon",
      "uncommon",
      "uncommon",
      "common",
      "common",
      "common",
      "common",
      "common",
      "common",
      "common",
      "common",
      "common",
      "common",
      [
        "foil mythic rare",
        "foil rare",
        "foil uncommon",
        "foil common"
      ]
    ],
    "tcgplayerUrlPattern": "modern-masters-2015"
  },
  {
    "code": "ORI",
    "name": "Magic Origins",
    "gathererCode": null,
    "oldCode": null,
    "magicCardsInfoCode": "ori",
    "releaseDate": "2015-07-17 00:00:00",
    "border": "black",
    "type": "core",
    "block": null,
    "onlineOnly": "0",
    "booster": [
      [
        "rare",
        "mythic rare"
      ],
      "uncommon",
      "uncommon",
      "uncommon",
      "common",
      "common",
      "common",
      "common",
      "common",
      "common",
      "common",
      "common",
      "common",
      "common",
      "land",
      "marketing"
    ],
    "tcgplayerUrlPattern": "magic-origins"
  },
  {
    "code": "V15",
    "name": "From the Vault: Angels",
    "gathererCode": null,
    "oldCode": null,
    "magicCardsInfoCode": "v15",
    "releaseDate": "2015-08-21 00:00:00",
    "border": "black",
    "type": "from the vault",
    "block": null,
    "onlineOnly": "0",
    "booster": null,
    "tcgplayerUrlPattern": "from-the-vault-angels"
  },
  {
    "code": "DDP",
    "name": "Duel Decks: Zendikar vs. Eldrazi",
    "gathererCode": null,
    "oldCode": null,
    "magicCardsInfoCode": "ddp",
    "releaseDate": "2015-08-28 00:00:00",
    "border": "black",
    "type": "duel deck",
    "block": null,
    "onlineOnly": "0",
    "booster": null,
    "tcgplayerUrlPattern": "duel-decks-zendikar-vs-eldrazi"
  },
  {
    "code": "BFZ",
    "name": "Battle for Zendikar",
    "gathererCode": null,
    "oldCode": null,
    "magicCardsInfoCode": "bfz",
    "releaseDate": "2015-10-02 00:00:00",
    "border": "black",
    "type": "expansion",
    "block": "Battle for Zendikar",
    "onlineOnly": "0",
    "booster": [
      [
        "rare",
        "mythic rare"
      ],
      "uncommon",
      "uncommon",
      "uncommon",
      "common",
      "common",
      "common",
      "common",
      "common",
      "common",
      "common",
      "common",
      "common",
      "common",
      "land",
      "marketing"
    ],
    "tcgplayerUrlPattern": "battle-for-zendikar"
  },
  {
    "code": "EXP",
    "name": "Zendikar Expeditions",
    "gathererCode": null,
    "oldCode": null,
    "magicCardsInfoCode": "exp",
    "releaseDate": "2015-10-02 00:00:00",
    "border": "black",
    "type": "promo",
    "block": null,
    "onlineOnly": "0",
    "booster": null,
    "tcgplayerUrlPattern": "zendikar-expeditions"
  },
  {
    "code": "C15",
    "name": "Commander 2015",
    "gathererCode": null,
    "oldCode": null,
    "magicCardsInfoCode": "c15",
    "releaseDate": "2015-11-13 00:00:00",
    "border": "black",
    "type": "commander",
    "block": null,
    "onlineOnly": "0",
    "booster": null,
    "tcgplayerUrlPattern": "commander-2015"
  },
  {
    "code": "OGW",
    "name": "Oath of the Gatewatch",
    "gathererCode": null,
    "oldCode": null,
    "magicCardsInfoCode": "ogw",
    "releaseDate": "2016-01-22 00:00:00",
    "border": "black",
    "type": "expansion",
    "block": "Battle for Zendikar",
    "onlineOnly": "0",
    "booster": [
      [
        "rare",
        "mythic rare"
      ],
      "uncommon",
      "uncommon",
      "uncommon",
      "common",
      "common",
      "common",
      "common",
      "common",
      "common",
      "common",
      "common",
      "common",
      "common",
      "land",
      "marketing"
    ],
    "tcgplayerUrlPattern": "oath-of-the-gatewatch"
  },
  {
    "code": "DDQ",
    "name": "Duel Decks: Blessed vs. Cursed",
    "gathererCode": null,
    "oldCode": null,
    "magicCardsInfoCode": null,
    "releaseDate": "2016-02-26 00:00:00",
    "border": "black",
    "type": "duel deck",
    "block": null,
    "onlineOnly": "0",
    "booster": null,
    "tcgplayerUrlPattern": "duel-decks-blessed-vs-cursed"
  },
  {
    "code": "W16",
    "name": "Welcome Deck 2016",
    "gathererCode": null,
    "oldCode": null,
    "magicCardsInfoCode": null,
    "releaseDate": "2016-04-08 00:00:00",
    "border": "black",
    "type": "starter",
    "block": "Shadows over Innistrad",
    "onlineOnly": "0",
    "booster": null,
    "tcgplayerUrlPattern": "welcome-deck-2016"
  },
  {
    "code": "SOI",
    "name": "Shadows over Innistrad",
    "gathererCode": null,
    "oldCode": null,
    "magicCardsInfoCode": null,
    "releaseDate": "2016-04-08 00:00:00",
    "border": "black",
    "type": "expansion",
    "block": "Shadows over Innistrad",
    "onlineOnly": "0",
    "booster": [
      [
        "rare",
        "mythic rare"
      ],
      "uncommon",
      "uncommon",
      "uncommon",
      "common",
      "common",
      "common",
      "common",
      "common",
      "common",
      "common",
      "common",
      "common",
      "common",
      "land",
      "marketing"
    ],
    "tcgplayerUrlPattern": "shadows-over-innistrad"
  },
  {
    "code": "EMA",
    "name": "Eternal Masters",
    "gathererCode": null,
    "oldCode": null,
    "magicCardsInfoCode": null,
    "releaseDate": "2016-06-10 00:00:00",
    "border": "black",
    "type": "reprint",
    "block": null,
    "onlineOnly": "0",
    "booster": [
      [
        "rare",
        "mythic rare"
      ],
      "uncommon",
      "uncommon",
      "uncommon",
      "common",
      "common",
      "common",
      "common",
      "common",
      "common",
      "common",
      "common",
      "common",
      "common",
      [
        "foil mythic rare",
        "foil rare",
        "foil uncommon",
        "foil common"
      ]
    ],
    "tcgplayerUrlPattern": "eternal-masters"
  },
  {
    "code": "EMN",
    "name": "Eldritch Moon",
    "gathererCode": null,
    "oldCode": null,
    "magicCardsInfoCode": null,
    "releaseDate": "2016-07-22 00:00:00",
    "border": "black",
    "type": "expansion",
    "block": "Shadows over Innistrad",
    "onlineOnly": "0",
    "booster": [
      [
        "rare",
        "mythic rare"
      ],
      "uncommon",
      "uncommon",
      "uncommon",
      "common",
      "common",
      "common",
      "common",
      "common",
      "common",
      "common",
      "common",
      "common",
      "common",
      "land",
      "marketing"
    ],
    "tcgplayerUrlPattern": "eldritch-moon"
  }
]
